verilator/dump.vcd
$version Generated by VerilatedVcd $end
$timescale 1ps $end
 $scope module top $end
  $var wire 1 7 clk $end
  $var wire 1 8 rst_b $end
  $var wire 24 9 x [23:0] $end
  $var wire 1 : x_dv $end
  $var wire 24 ; y [23:0] $end
  $var wire 1 < y_dv $end
  $scope module $unit $end
   $var wire 32 D X_I [31:0] $end
   $var wire 32 E X_F [31:0] $end
   $var wire 32 F X_W [31:0] $end
   $var wire 32 D X1_I [31:0] $end
   $var wire 32 G X1_F [31:0] $end
   $var wire 32 H X1_W [31:0] $end
   $var wire 32 I X2_I [31:0] $end
   $var wire 32 J X2_J [31:0] $end
   $var wire 32 K X2_F [31:0] $end
   $var wire 32 K X2_W [31:0] $end
   $var wire 32 L A_I [31:0] $end
   $var wire 32 M A_F [31:0] $end
   $var wire 32 N A_W [31:0] $end
   $var wire 32 L B_I [31:0] $end
   $var wire 32 O B_F [31:0] $end
   $var wire 32 P B_W [31:0] $end
   $var wire 32 Q C_I [31:0] $end
   $var wire 32 R C_F [31:0] $end
   $var wire 32 S C_W [31:0] $end
   $var wire 32 Q Y_I [31:0] $end
   $var wire 32 E Y_F [31:0] $end
   $var wire 32 F Y_W [31:0] $end
   $var wire 32 T R_F [31:0] $end
   $var wire 32 Q S_I [31:0] $end
   $var wire 32 U S_F [31:0] $end
   $var wire 32 V S_W [31:0] $end
   $var wire 32 I SQ_I [31:0] $end
   $var wire 32 F SQ_F [31:0] $end
   $var wire 32 F SQ_W [31:0] $end
   $var wire 32 L T0_I [31:0] $end
   $var wire 32 U T0_F [31:0] $end
   $var wire 32 W T0_W [31:0] $end
   $var wire 32 L T1_I [31:0] $end
   $var wire 32 U T1_F [31:0] $end
   $var wire 32 W T1_W [31:0] $end
   $var wire 32 Q T2_I [31:0] $end
   $var wire 32 U T2_F [31:0] $end
   $var wire 32 V T2_W [31:0] $end
  $upscope $end
  $scope module quadra_top $end
   $var wire 1 7 clk $end
   $var wire 1 8 rst_b $end
   $var wire 24 9 x [23:0] $end
   $var wire 1 : x_dv $end
   $var wire 24 ; y [23:0] $end
   $var wire 1 < y_dv $end
   $var wire 1 % dv_p0 $end
   $var wire 1 & dv_p1 $end
   $var wire 1 ' dv_p2 $end
   $var wire 24 ( y_int [23:0] $end
   $scope module u_quadra $end
    $var wire 1 7 clk $end
    $var wire 1 8 rst_b $end
    $var wire 24 9 x [23:0] $end
    $var wire 24 ( y [23:0] $end
    $var wire 7 = x1_w [6:0] $end
    $var wire 17 > x2_w [16:0] $end
    $var wire 24 ? sq_w [23:0] $end
    $var wire 25 " a_w [24:0] $end
    $var wire 19 # b_w [18:0] $end
    $var wire 13 $ c_w [12:0] $end
    $var wire 17 ) x2_r1 [16:0] $end
    $var wire 24 * sq_r1 [23:0] $end
    $var wire 25 + a_r1 [24:0] $end
    $var wire 19 , b_r1 [18:0] $end
    $var wire 13 - c_r1 [12:0] $end
    $var wire 30 . t1_w [29:0] $end
    $var wire 29 / t2_w [28:0] $end
    $var wire 30 0 t0_r2 [29:0] $end
    $var wire 30 1 t1_r2 [29:0] $end
    $var wire 29 2 t2_r2 [28:0] $end
    $var wire 29 3 s_w [28:0] $end
    $var wire 89 4 s_full [88:0] $end
    $var wire 24 ( y_r [23:0] $end
    $scope module u_lut $end
     $var wire 7 = x1 [6:0] $end
     $var wire 25 " a [24:0] $end
     $var wire 19 # b [18:0] $end
     $var wire 13 $ c [12:0] $end
    $upscope $end
    $scope module u_square $end
     $var wire 17 > x2 [16:0] $end
     $var wire 24 ? sq [23:0] $end
     $var wire 34 @ sq_full [33:0] $end
     $var wire 34 B sq_full_shifted [33:0] $end
    $upscope $end
   $upscope $end
  $upscope $end
 $upscope $end
$enddefinitions $end


#500
b1110100101011111011000011 "
b0010110101000001010 #
b0101101010000 $
1%
0&
0'
b100001101111101111001001 (
b00111101001010101 )
b010000000001000110011001 *
b1111011111001111001100011 +
b0111110111001100101 ,
b0110111010111 -
b000000100000111010100100100110 .
b00000000101101011001110001100 /
b100001101011001110010000011101 0
b011111010010100010011111001100 1
b01000110111011010101010010111 2
b01001110101001011011010000000 3
b00000000000000000000000000000000000000000000000000000000000001001110101001011011010000000 4
07
18
b000000000000000000000000 9
0:
b100001101111101111001001 ;
0<
b0000000 =
b00000000000000000 >
b000000000000000000000000 ?
b0000000000000000000000000000000000 @
b0000000000000000000000000000000000 B
b00000000000000000000000000000001 D
b00000000000000000000000000010111 E
b00000000000000000000000000011000 F
b00000000000000000000000000000110 G
b00000000000000000000000000000111 H
b00000000000000000000000000000000 I
b11111111111111111111111111111010 J
b00000000000000000000000000010001 K
b00000000000000000000000000000011 L
b00000000000000000000000000010110 M
b00000000000000000000000000011001 N
b00000000000000000000000000010000 O
b00000000000000000000000000010011 P
b00000000000000000000000000000010 Q
b00000000000000000000000000001011 R
b00000000000000000000000000001101 S
b00000000000000000000000000000100 T
b00000000000000000000000000011011 U
b00000000000000000000000000011101 V
b00000000000000000000000000011110 W
#1000
0%
1&
b010011101010010110110100 (
b00000000000000000 )
b000000000000000000000000 *
b1110100101011111011000011 +
b0010110101000001010 ,
b0101101010000 -
b000000000000000000000000000000 .
b00000000000000000000000000000 /
b111111111011111001111001100011 0
b000000100000111010100100100110 1
b00000000101101011001110001100 2
b00000100010011111101100010101 3
b00000000000000000000000000000000000000000000000000000000000000000100010011111101100010101 4
17
b010011101010010110110100 ;
#1500
07
08
#2000
0&
b000000000000000000000000 (
b0000000000000000000000000 +
b0000000000000000000 ,
b0000000000000 -
b000000000000000000000000000000 0
b000000000000000000000000000000 1
b00000000000000000000000000000 2
b00000000000000000000000000000 3
b00000000000000000000000000000000000000000000000000000000000000000000000000000000000000000 4
17
b000000000000000000000000 ;
#2500
07
18
#3000
b1110100101011111011000011 +
b0010110101000001010 ,
b0101101010000 -
17
#3500
07
#4000
b111111110100101011111011000011 0
b11111110100101011111011000011 3
b11111111111111111111111111111111111111111111111111111111111111111110100101011111011000011 4
17
#4500
07
#5000
b111111101001010111110110 (
17
b111111101001010111110110 ;
#5500
07
#6000
17
#6500
07
#7000
17
#7500
07
#8000
17
#8500
07
#9000
17
#9500
07
#10000
17
#10500
07
#11000
17
#11500
07
#12000
17
#12500
07
#13000
17
#13500
07
#14000
17
#14500
07
#15000
17
#15500
b1111111010101010000000100 "
b1100000000001110010 #
b0000010101011 $
07
b111111111111111111110000 9
1:
b1111111 =
b11111111111110000 >
b111111111111000000000000 ?
b1111111111110000000000000100000000 @
b0000000000111111111111000000000000 B
#16000
1%
b11111111111110000 )
b111111111111000000000000 *
b1111111010101010000000100 +
b1100000000001110010 ,
b0000010101011 -
b000000000000100000111111100011 .
b00000000010101111010101010000 /
17
#16500
07
b111111111111111111110001 9
b11111111111110001 >
b111111111111000100000000 ?
b1111111111110001000000000011100001 @
b0000000000111111111111000100000000 B
#17000
1&
b11111111111110001 )
b111111111111000100000000 *
b000000000000100010011111100101 .
b00000000010101111010111111011 /
b111111111111010101010000000100 0
b000000000000100000111111100011 1
b00000000010101111010101010000 2
b00000000010100101100100110111 3
b00000000000000000000000000000000000000000000000000000000000000000000010100101100100110111 4
17
#17500
07
b111111111111111111110010 9
b11111111111110010 >
b111111111111001000000000 ?
b1111111111110010000000000011000100 @
b0000000000111111111111001000000000 B
#18000
1'
b000000000101001011001001 (
b11111111111110010 )
b111111111111001000000000 *
b000000000000100011111111100111 .
b00000000010101111011010100110 /
b000000000000100010011111100101 1
b00000000010101111010111111011 2
b00000000010100111000111100100 3
b00000000000000000000000000000000000000000000000000000000000000000000010100111000111100100 4
17
b000000000101001011001001 ;
1<
#18500
07
b111111111111111111110011 9
b11111111111110011 >
b111111111111001100000000 ?
b1111111111110011000000000010101001 @
b0000000000111111111111001100000000 B
#19000
b000000000101001110001111 (
b11111111111110011 )
b111111111111001100000000 *
b000000000000100101011111101000 .
b00000000010101111011101010001 /
b000000000000100011111111100111 1
b00000000010101111011010100110 2
b00000000010101000101010010001 3
b00000000000000000000000000000000000000000000000000000000000000000000010101000101010010001 4
17
b000000000101001110001111 ;
#19500
07
b111111111111111111110100 9
b11111111111110100 >
b111111111111010000000000 ?
b1111111111110100000000000010010000 @
b0000000000111111111111010000000000 B
#20000
b000000000101010001010100 (
b11111111111110100 )
b111111111111010000000000 *
b000000000000100110111111101010 .
b00000000010101111011111111100 /
b000000000000100101011111101000 1
b00000000010101111011101010001 2
b00000000010101010001100111101 3
b00000000000000000000000000000000000000000000000000000000000000000000010101010001100111101 4
17
b000000000101010001010100 ;
#20500
07
b111111111111111111110101 9
b11111111111110101 >
b111111111111010100000000 ?
b1111111111110101000000000001111001 @
b0000000000111111111111010100000000 B
#21000
b000000000101010100011001 (
b11111111111110101 )
b111111111111010100000000 *
b000000000000101000011111101100 .
b00000000010101111100010100111 /
b000000000000100110111111101010 1
b00000000010101111011111111100 2
b00000000010101011101111101010 3
b00000000000000000000000000000000000000000000000000000000000000000000010101011101111101010 4
17
b000000000101010100011001 ;
#21500
07
b111111111111111111110110 9
b11111111111110110 >
b111111111111011000000000 ?
b1111111111110110000000000001100100 @
b0000000000111111111111011000000000 B
#22000
b000000000101010111011111 (
b11111111111110110 )
b111111111111011000000000 *
b000000000000101001111111101110 .
b00000000010101111100101010010 /
b000000000000101000011111101100 1
b00000000010101111100010100111 2
b00000000010101101010010010111 3
b00000000000000000000000000000000000000000000000000000000000000000000010101101010010010111 4
17
b000000000101010111011111 ;
#22500
07
b111111111111111111110111 9
b11111111111110111 >
b111111111111011100000000 ?
b1111111111110111000000000001010001 @
b0000000000111111111111011100000000 B
#23000
b000000000101011010100100 (
b11111111111110111 )
b111111111111011100000000 *
b000000000000101011011111101111 .
b00000000010101111100111111101 /
b000000000000101001111111101110 1
b00000000010101111100101010010 2
b00000000010101110110101000100 3
b00000000000000000000000000000000000000000000000000000000000000000000010101110110101000100 4
17
b000000000101011010100100 ;
#23500
07
b111111111111111111111000 9
b11111111111111000 >
b111111111111100000000000 ?
b1111111111111000000000000001000000 @
b0000000000111111111111100000000000 B
#24000
b000000000101011101101010 (
b11111111111111000 )
b111111111111100000000000 *
b000000000000101100111111110001 .
b00000000010101111101010101000 /
b000000000000101011011111101111 1
b00000000010101111100111111101 2
b00000000010110000010111110000 3
b00000000000000000000000000000000000000000000000000000000000000000000010110000010111110000 4
17
b000000000101011101101010 ;
#24500
07
b111111111111111111111001 9
b11111111111111001 >
b111111111111100100000000 ?
b1111111111111001000000000000110001 @
b0000000000111111111111100100000000 B
#25000
b000000000101100000101111 (
b11111111111111001 )
b111111111111100100000000 *
b000000000000101110011111110011 .
b00000000010101111101101010011 /
b000000000000101100111111110001 1
b00000000010101111101010101000 2
b00000000010110001111010011101 3
b00000000000000000000000000000000000000000000000000000000000000000000010110001111010011101 4
17
b000000000101100000101111 ;
#25500
07
b111111111111111111111010 9
b11111111111111010 >
b111111111111101000000000 ?
b1111111111111010000000000000100100 @
b0000000000111111111111101000000000 B
#26000
b000000000101100011110100 (
b11111111111111010 )
b111111111111101000000000 *
b000000000000101111111111110101 .
b00000000010101111101111111110 /
b000000000000101110011111110011 1
b00000000010101111101101010011 2
b00000000010110011011101001010 3
b00000000000000000000000000000000000000000000000000000000000000000000010110011011101001010 4
17
b000000000101100011110100 ;
#26500
07
b111111111111111111111011 9
b11111111111111011 >
b111111111111101100000000 ?
b1111111111111011000000000000011001 @
b0000000000111111111111101100000000 B
#27000
b000000000101100110111010 (
b11111111111111011 )
b111111111111101100000000 *
b000000000000110001011111110111 .
b00000000010101111110010101001 /
b000000000000101111111111110101 1
b00000000010101111101111111110 2
b00000000010110100111111110111 3
b00000000000000000000000000000000000000000000000000000000000000000000010110100111111110111 4
17
b000000000101100110111010 ;
#27500
07
b111111111111111111111100 9
b11111111111111100 >
b111111111111110000000000 ?
b1111111111111100000000000000010000 @
b0000000000111111111111110000000000 B
#28000
b000000000101101001111111 (
b11111111111111100 )
b111111111111110000000000 *
b000000000000110010111111111000 .
b00000000010101111110101010100 /
b000000000000110001011111110111 1
b00000000010101111110010101001 2
b00000000010110110100010100100 3
b00000000000000000000000000000000000000000000000000000000000000000000010110110100010100100 4
17
b000000000101101001111111 ;
#28500
07
b111111111111111111111101 9
b11111111111111101 >
b111111111111110100000000 ?
b1111111111111101000000000000001001 @
b0000000000111111111111110100000000 B
#29000
b000000000101101101000101 (
b11111111111111101 )
b111111111111110100000000 *
b000000000000110100011111111010 .
b00000000010101111110111111111 /
b000000000000110010111111111000 1
b00000000010101111110101010100 2
b00000000010111000000101010000 3
b00000000000000000000000000000000000000000000000000000000000000000000010111000000101010000 4
17
b000000000101101101000101 ;
#29500
07
b111111111111111111111110 9
b11111111111111110 >
b111111111111111000000000 ?
b1111111111111110000000000000000100 @
b0000000000111111111111111000000000 B
#30000
b000000000101110000001010 (
b11111111111111110 )
b111111111111111000000000 *
b000000000000110101111111111100 .
b00000000010101111111010101010 /
b000000000000110100011111111010 1
b00000000010101111110111111111 2
b00000000010111001100111111101 3
b00000000000000000000000000000000000000000000000000000000000000000000010111001100111111101 4
17
b000000000101110000001010 ;
#30500
07
b111111111111111111111111 9
b11111111111111111 >
b111111111111111100000000 ?
b1111111111111111000000000000000001 @
b0000000000111111111111111100000000 B
#31000
b000000000101110011001111 (
b11111111111111111 )
b111111111111111100000000 *
b000000000000110111011111111110 .
b00000000010101111111101010101 /
b000000000000110101111111111100 1
b00000000010101111111010101010 2
b00000000010111011001010101010 3
b00000000000000000000000000000000000000000000000000000000000000000000010111011001010101010 4
17
b000000000101110011001111 ;
#31500
b1110100101011111011000011 "
b0010110101000001010 #
b0101101010000 $
07
b000000000000000000000000 9
0:
b0000000 =
b00000000000000000 >
b000000000000000000000000 ?
b0000000000000000000000000000000000 @
b0000000000000000000000000000000000 B
#32000
0%
b000000000101110110010101 (
b00000000000000000 )
b000000000000000000000000 *
b1110100101011111011000011 +
b0010110101000001010 ,
b0101101010000 -
b000000000000000000000000000000 .
b00000000000000000000000000000 /
b000000000000110111011111111110 1
b00000000010101111111101010101 2
b00000000010111100101101010111 3
b00000000000000000000000000000000000000000000000000000000000000000000010111100101101010111 4
17
b000000000101110110010101 ;
#32500
07
#33000
0&
b000000000101111001011010 (
b111111110100101011111011000011 0
b000000000000000000000000000000 1
b00000000000000000000000000000 2
b11111110100101011111011000011 3
b11111111111111111111111111111111111111111111111111111111111111111110100101011111011000011 4
17
b000000000101111001011010 ;
#33500
07
#34000
0'
b111111101001010111110110 (
17
b111111101001010111110110 ;
0<
