verilator/dump.vcd
$version Generated by VerilatedVcd $end
$timescale 1ps $end
 $scope module top $end
  $var wire 1 @ clk $end
  $var wire 1 A rst_b $end
  $var wire 24 B x [23:0] $end
  $var wire 1 C x_dv $end
  $var wire 24 D y [23:0] $end
  $var wire 1 E y_dv $end
  $scope module $unit $end
   $var wire 32 O X_I [31:0] $end
   $var wire 32 P X_F [31:0] $end
   $var wire 32 Q X_W [31:0] $end
   $var wire 32 O X1_I [31:0] $end
   $var wire 32 R X1_F [31:0] $end
   $var wire 32 S X1_W [31:0] $end
   $var wire 32 T X2_I [31:0] $end
   $var wire 32 U X2_F [31:0] $end
   $var wire 32 U X2_W [31:0] $end
   $var wire 32 V A_I [31:0] $end
   $var wire 32 W A_F [31:0] $end
   $var wire 32 X A_W [31:0] $end
   $var wire 32 V B_I [31:0] $end
   $var wire 32 Y B_F [31:0] $end
   $var wire 32 Z B_W [31:0] $end
   $var wire 32 [ C_I [31:0] $end
   $var wire 32 \ C_F [31:0] $end
   $var wire 32 ] C_W [31:0] $end
   $var wire 32 [ Y_I [31:0] $end
   $var wire 32 P Y_F [31:0] $end
   $var wire 32 Q Y_W [31:0] $end
   $var wire 32 ^ R_F [31:0] $end
   $var wire 32 [ S_I [31:0] $end
   $var wire 32 _ S_F [31:0] $end
   $var wire 32 ` S_W [31:0] $end
   $var wire 32 T SQ_I [31:0] $end
   $var wire 32 Q SQ_F [31:0] $end
   $var wire 32 Q SQ_W [31:0] $end
   $var wire 32 V T0_I [31:0] $end
   $var wire 32 _ T0_F [31:0] $end
   $var wire 32 M T0_W [31:0] $end
   $var wire 32 V T1_I [31:0] $end
   $var wire 32 _ T1_F [31:0] $end
   $var wire 32 M T1_W [31:0] $end
   $var wire 32 [ T2_I [31:0] $end
   $var wire 32 _ T2_F [31:0] $end
   $var wire 32 ` T2_W [31:0] $end
  $upscope $end
  $scope module quadra_top $end
   $var wire 1 @ clk $end
   $var wire 1 A rst_b $end
   $var wire 24 B x [23:0] $end
   $var wire 1 C x_dv $end
   $var wire 24 D y [23:0] $end
   $var wire 1 E y_dv $end
   $var wire 1 % dv_p0 $end
   $var wire 1 & dv_p1 $end
   $var wire 1 ' dv_p2 $end
   $var wire 24 ( y_int [23:0] $end
   $scope module u_quadra $end
    $var wire 1 @ clk $end
    $var wire 1 A rst_b $end
    $var wire 24 B x [23:0] $end
    $var wire 24 ( y [23:0] $end
    $var wire 7 F x1_w [6:0] $end
    $var wire 17 G x2_w [16:0] $end
    $var wire 24 H sq_w [23:0] $end
    $var wire 25 " a_w [24:0] $end
    $var wire 19 # b_w [18:0] $end
    $var wire 13 $ c_w [12:0] $end
    $var wire 17 ) x2_r1 [16:0] $end
    $var wire 24 * sq_r1 [23:0] $end
    $var wire 25 + a_r1 [24:0] $end
    $var wire 19 , b_r1 [18:0] $end
    $var wire 13 - c_r1 [12:0] $end
    $var wire 30 . t1_w [29:0] $end
    $var wire 29 / t2_w [28:0] $end
    $var wire 36 0 t1_w_full [35:0] $end
    $var wire 36 2 t1_w_shifted [35:0] $end
    $var wire 37 4 t2_w_full [36:0] $end
    $var wire 37 6 t2_w_shifted [36:0] $end
    $var wire 30 8 t0_r2 [29:0] $end
    $var wire 30 9 t1_r2 [29:0] $end
    $var wire 29 : t2_r2 [28:0] $end
    $var wire 29 ; s_w [28:0] $end
    $var wire 32 M MAX_T0_T1 [31:0] $end
    $var wire 32 N S_W_TEMP [31:0] $end
    $var wire 31 < t0_ext [30:0] $end
    $var wire 31 = t1_ext [30:0] $end
    $var wire 31 > t2_ext [30:0] $end
    $var wire 31 ? s_w_temp [30:0] $end
    $var wire 24 ( y_r [23:0] $end
    $scope module u_lut $end
     $var wire 7 F x1 [6:0] $end
     $var wire 25 " a [24:0] $end
     $var wire 19 # b [18:0] $end
     $var wire 13 $ c [12:0] $end
    $upscope $end
    $scope module u_square $end
     $var wire 17 G x2 [16:0] $end
     $var wire 24 H sq [23:0] $end
     $var wire 34 I sq_full [33:0] $end
     $var wire 34 K sq_full_shifted [33:0] $end
    $upscope $end
   $upscope $end
  $upscope $end
 $upscope $end
$enddefinitions $end


#500
b1110100101011111011000011 "
b0010110101000001010 #
b0101101010000 $
1%
0&
0'
b100001101111101111001001 (
b00111101001010101 )
b010000000001000110011001 *
b1111011111001111001100011 +
b0111110111001100101 ,
b0110111010111 -
b000111100000111010100100100110 .
b00011011101101011001110001100 /
b000111100000111010100100100110001001 0
b000000000111100000111010100100100110 2
b0001101110110101100111000110001111111 4
b0000000000011011101101011001110001100 6
b100001101011001110010000011101 8
b011111010010100010011111001100 9
b01000110111011010101010010111 :
b00010011101010010110110100000 ;
b1100001101011001110010000011101 <
b0011111010010100010011111001100 =
b0001000110111011010101010010111 >
b0001001110101001011011010000000 ?
0@
1A
b000000000000000000000000 B
0C
b100001101111101111001001 D
0E
b0000000 F
b00000000000000000 G
b000000000000000000000000 H
b0000000000000000000000000000000000 I
b0000000000000000000000000000000000 K
b00000000000000000000000000011110 M
b00000000000000000000000000011111 N
b00000000000000000000000000000001 O
b00000000000000000000000000010111 P
b00000000000000000000000000011000 Q
b00000000000000000000000000000110 R
b00000000000000000000000000000111 S
b00000000000000000000000000000000 T
b00000000000000000000000000010001 U
b00000000000000000000000000000011 V
b00000000000000000000000000010110 W
b00000000000000000000000000011001 X
b00000000000000000000000000010000 Y
b00000000000000000000000000010011 Z
b00000000000000000000000000000010 [
b00000000000000000000000000001011 \
b00000000000000000000000000001101 ]
b00000000000000000000000000000100 ^
b00000000000000000000000000011011 _
b00000000000000000000000000011101 `
#1000
0%
1&
b001001110101001011011010 (
b00000000000000000 )
b000000000000000000000000 *
b1110100101011111011000011 +
b0010110101000001010 ,
b0101101010000 -
b000000000000000000000000000000 .
b00000000000000000000000000000 /
b000000000000000000000000000000000000 0
b000000000000000000000000000000000000 2
b0000000000000000000000000000000000000 4
b0000000000000000000000000000000000000 6
b111101111100111100110001100000 8
b000111100000111010100100100110 9
b00011011101101011001110001100 :
b00010001110111000101001000100 ;
b1111101111100111100110001100000 <
b0000111100000111010100100100110 =
b0000011011101101011001110001100 >
b0001000111011100010100100010010 ?
1@
b001001110101001011011010 D
#1500
0@
0A
#2000
0&
b000000000000000000000000 (
b0000000000000000000000000 +
b0000000000000000000 ,
b0000000000000 -
b000000000000000000000000000000 8
b000000000000000000000000000000 9
b00000000000000000000000000000 :
b00000000000000000000000000000 ;
b0000000000000000000000000000000 <
b0000000000000000000000000000000 =
b0000000000000000000000000000000 >
b0000000000000000000000000000000 ?
1@
b000000000000000000000000 D
#2500
0@
1A
#3000
b1110100101011111011000011 +
b0010110101000001010 ,
b0101101010000 -
1@
#3500
0@
#4000
b111010010101111101100001100000 8
b11110100101011111011000011000 ;
b1111010010101111101100001100000 <
b1111010010101111101100001100000 ?
1@
#4500
0@
#5000
b111010010101111101100001 (
1@
b111010010101111101100001 D
#5500
0@
#6000
1@
#6500
0@
#7000
1@
#7500
0@
#8000
1@
#8500
0@
#9000
1@
#9500
0@
#10000
1@
#10500
0@
#11000
1@
#11500
0@
#12000
1@
#12500
0@
#13000
1@
#13500
0@
#14000
1@
#14500
0@
#15000
1@
#15500
0@
b000000000000111111111111 B
1C
b00000111111111111 G
b000000000011111111111000 H
b0000000000111111111110000000000001 I
b0000000000000000000011111111111000 K
#16000
1%
b00000111111111111 )
b000000000011111111111000 *
b000000010110100111110011010111 .
b00000000000101101001110100101 /
b000000010110100111110011010111110110 0
b000000000000010110100111110011010111 2
b0000000000010110100111010010110000000 4
b0000000000000000000101101001110100101 6
1@
#16500
0@
b000000000001000100000000 B
b00001000100000000 G
b000000000100100001000000 H
b0000000001001000010000000000000000 I
b0000000000000000000100100001000000 K
#17000
1&
b00001000100000000 )
b000000000100100001000000 *
b000000011000000010101010101000 .
b00000000000110011000101010100 /
b000000011000000010101010101000000000 0
b000000000000011000000010101010101000 2
b0000000000011001100010101010000000000 4
b0000000000000000000110011000101010100 6
b000000010110100111110011010111 9
b00000000000101101001110100101 :
b11110101011010100101000110111 ;
b0000000010110100111110011010111 =
b0000000000000101101001110100101 >
b1111010101101010010100011011100 ?
1@
#17500
0@
b000000000001001000000001 B
b00001001000000001 G
b000000000101000100001001 H
b0000000001010001000010010000000001 I
b0000000000000000000101000100001001 K
#18000
1'
b111010101101010010100011 (
b00001001000000001 )
b000000000101000100001001 *
b000000011001011101100001111000 .
b00000000000111001010010110101 /
b000000011001011101100001111000001010 0
b000000000000011001011101100001111000 2
b0000000000011100101001011010111010000 4
b0000000000000000000111001010010110101 6
b000000011000000010101010101000 9
b00000000000110011000101010100 :
b11110101011101100110100010111 ;
b0000000011000000010101010101000 =
b0000000000000110011000101010100 >
b1111010101110110011010001011100 ?
1@
b111010101101010010100011 D
1E
#18500
0@
b000000000001001100000010 B
b00001001100000010 G
b000000000101101001010011 H
b0000000001011010010100110000000100 I
b0000000000000000000101101001010011 K
#19000
b111010101110110011010001 (
b00001001100000010 )
b000000000101101001010011 *
b000000011010111000011001001000 .
b00000000000111111110111001010 /
b000000011010111000011001001000010100 0
b000000000000011010111000011001001000 2
b0000000000011111111011100101011110000 4
b0000000000000000000111111110111001010 6
b000000011001011101100001111000 9
b00000000000111001010010110101 :
b11110101100000101000101100011 ;
b0000000011001011101100001111000 =
b0000000000000111001010010110101 >
b1111010110000010100010110001101 ?
1@
b111010101110110011010001 D
#19500
0@
b000000000001010000000011 B
b00001010000000011 G
b000000000110010000011110 H
b0000000001100100000111100000001001 I
b0000000000000000000110010000011110 K
#20000
b111010110000010100010110 (
b00001010000000011 )
b000000000110010000011110 *
b000000011100010011010000011000 .
b00000000001000110110010010011 /
b000000011100010011010000011000011110 0
b000000000000011100010011010000011000 2
b0000000000100011011001001001101100000 4
b0000000000000000001000110110010010011 6
b000000011010111000011001001000 9
b00000000000111111110111001010 :
b11110101100011101011100011100 ;
b0000000011010111000011001001000 =
b0000000000000111111110111001010 >
b1111010110001110101110001110010 ?
1@
b111010110000010100010110 D
#20500
0@
b000000000001010100000100 B
b00001010100000100 G
b000000000110111001101010 H
b0000000001101110011010100000010000 I
b0000000000000000000110111001101010 K
#21000
b111010110001110101110001 (
b00001010100000100 )
b000000000110111001101010 *
b000000011101101110000111101000 .
b00000000001001110000100001111 /
b000000011101101110000111101000101000 0
b000000000000011101101110000111101000 2
b0000000000100111000010000111100100000 4
b0000000000000000001001110000100001111 6
b000000011100010011010000011000 9
b00000000001000110110010010011 :
b11110101100110101111001000010 ;
b0000000011100010011010000011000 =
b0000000000001000110110010010011 >
b1111010110011010111100100001011 ?
1@
b111010110001110101110001 D
#21500
0@
b000000000001011000000101 B
b00001011000000101 G
b000000000111100100110111 H
b0000000001111001001101110000011001 I
b0000000000000000000111100100110111 K
#22000
b111010110011010111100100 (
b00001011000000101 )
b000000000111100100110111 *
b000000011111001000111110111000 .
b00000000001010101101100111110 /
b000000011111001000111110111000110010 0
b000000000000011111001000111110111000 2
b0000000000101010110110011111000110000 4
b0000000000000000001010101101100111110 6
b000000011101101110000111101000 9
b00000000001001110000100001111 :
b11110101101001110011011010101 ;
b0000000011101101110000111101000 =
b0000000000001001110000100001111 >
b1111010110100111001101101010111 ?
1@
b111010110011010111100100 D
#22500
0@
b000000000001011100000110 B
b00001011100000110 G
b000000001000010010000101 H
b0000000010000100100001010000100100 I
b0000000000000000001000010010000101 K
#23000
b111010110100111001101101 (
b00001011100000110 )
b000000001000010010000101 *
b000000100000100011110110001000 .
b00000000001011101101100100000 /
b000000100000100011110110001000111100 0
b000000000000100000100011110110001000 2
b0000000000101110110110010000010010000 4
b0000000000000000001011101101100100000 6
b000000011111001000111110111000 9
b00000000001010101101100111110 :
b11110101101100111000011010101 ;
b0000000011111001000111110111000 =
b0000000000001010101101100111110 >
b1111010110110011100001101010110 ?
1@
b111010110100111001101101 D
#23500
0@
b000000000001100000000111 B
b00001100000000111 G
b000000001001000001010100 H
b0000000010010000010101000000110001 I
b0000000000000000001001000001010100 K
#24000
b111010110110011100001101 (
b00001100000000111 )
b000000001001000001010100 *
b000000100001111110101101011001 .
b00000000001100110000010110110 /
b000000100001111110101101011001000110 0
b000000000000100001111110101101011001 2
b0000000000110011000001011011001000000 4
b0000000000000000001100110000010110110 6
b000000100000100011110110001000 9
b00000000001011101101100100000 :
b11110101101111111110001000010 ;
b0000000100000100011110110001000 =
b0000000000001011101101100100000 >
b1111010110111111111000100001000 ?
1@
b111010110110011100001101 D
#24500
0@
b000000000001100100001000 B
b00001100100001000 G
b000000001001110010100100 H
b0000000010011100101001000001000000 I
b0000000000000000001001110010100100 K
#25000
b111010110111111111000100 (
b00001100100001000 )
b000000001001110010100100 *
b000000100011011001100100101001 .
b00000000001101110101111111111 /
b000000100011011001100100101001010000 0
b000000000000100011011001100100101001 2
b0000000000110111010111111111101000000 4
b0000000000000000001101110101111111111 6
b000000100001111110101101011001 9
b00000000001100110000010110110 :
b11110101110011000100100011011 ;
b0000000100001111110101101011001 =
b0000000000001100110000010110110 >
b1111010111001100010010001101111 ?
1@
b111010110111111111000100 D
#25500
0@
b000000000001101000001001 B
b00001101000001001 G
b000000001010100101110101 H
b0000000010101001011101010001010001 I
b0000000000000000001010100101110101 K
#26000
b111010111001100010010001 (
b00001101000001001 )
b000000001010100101110101 *
b000000100100110100011011111001 .
b00000000001110111110011111011 /
b000000100100110100011011111001011010 0
b000000000000100100110100011011111001 2
b0000000000111011111001111101110010000 4
b0000000000000000001110111110011111011 6
b000000100011011001100100101001 9
b00000000001101110101111111111 :
b11110101110110001011101100010 ;
b0000000100011011001100100101001 =
b0000000000001101110101111111111 >
b1111010111011000101110110001000 ?
1@
b111010111001100010010001 D
#26500
0@
b000000000001101100001010 B
b00001101100001010 G
b000000001011011011000111 H
b0000000010110110110001110001100100 I
b0000000000000000001011011011000111 K
#27000
b111010111011000101110110 (
b00001101100001010 )
b000000001011011011000111 *
b000000100110001111010011001001 .
b00000000010000001001110101011 /
b000000100110001111010011001001100100 0
b000000000000100110001111010011001001 2
b0000000001000000100111010101100110000 4
b0000000000000000010000001001110101011 6
b000000100100110100011011111001 9
b00000000001110111110011111011 :
b11110101111001010011100010101 ;
b0000000100100110100011011111001 =
b0000000000001110111110011111011 >
b1111010111100101001110001010100 ?
1@
b111010111011000101110110 D
#27500
0@
b000000000001110000001011 B
b00001110000001011 G
b000000001100010010011010 H
b0000000011000100100110100001111001 I
b0000000000000000001100010010011010 K
#28000
b111010111100101001110001 (
b00001110000001011 )
b000000001100010010011010 *
b000000100111101010001010011001 .
b00000000010001011000000001110 /
b000000100111101010001010011001101110 0
b000000000000100111101010001010011001 2
b0000000001000101100000000111000100000 4
b0000000000000000010001011000000001110 6
b000000100110001111010011001001 9
b00000000010000001001110101011 :
b11110101111100011100000110101 ;
b0000000100110001111010011001001 =
b0000000000010000001001110101011 >
b1111010111110001110000011010100 ?
1@
b111010111100101001110001 D
#28500
0@
b000000000001110100001100 B
b00001110100001100 G
b000000001101001011101110 H
b0000000011010010111011100010010000 I
b0000000000000000001101001011101110 K
#29000
b111010111110001110000011 (
b00001110100001100 )
b000000001101001011101110 *
b000000101001000101000001101001 .
b00000000010010101001000100100 /
b000000101001000101000001101001111000 0
b000000000000101001000101000001101001 2
b0000000001001010100100010010001100000 4
b0000000000000000010010101001000100100 6
b000000100111101010001010011001 9
b00000000010001011000000001110 :
b11110101111111100101011000001 ;
b0000000100111101010001010011001 =
b0000000000010001011000000001110 >
b1111010111111110010101100000111 ?
1@
b111010111110001110000011 D
#29500
0@
b000000000001111000001101 B
b00001111000001101 G
b000000001110000111000011 H
b0000000011100001110000110010101001 I
b0000000000000000001110000111000011 K
#30000
b111010111111110010101100 (
b00001111000001101 )
b000000001110000111000011 *
b000000101010011111111000111010 .
b00000000010011111100111101101 /
b000000101010011111111000111010000010 0
b000000000000101010011111111000111010 2
b0000000001001111110011110110111110000 4
b0000000000000000010011111100111101101 6
b000000101001000101000001101001 9
b00000000010010101001000100100 :
b11110110000010101111010111011 ;
b0000000101001000101000001101001 =
b0000000000010010101001000100100 >
b1111011000001010111101011101101 ?
1@
b111010111111110010101100 D
#30500
0@
b000000000001111100001110 B
b00001111100001110 G
b000000001111000100011001 H
b0000000011110001000110010011000100 I
b0000000000000000001111000100011001 K
#31000
b111011000001010111101011 (
b00001111100001110 )
b000000001111000100011001 *
b000000101011111010110000001010 .
b00000000010101010011101101010 /
b000000101011111010110000001010001100 0
b000000000000101011111010110000001010 2
b0000000001010101001110110101011010000 4
b0000000000000000010101010011101101010 6
b000000101010011111111000111010 9
b00000000010011111100111101101 :
b11110110000101111010000100001 ;
b0000000101010011111111000111010 =
b0000000000010011111100111101101 >
b1111011000010111101000010000111 ?
1@
b111011000001010111101011 D
#31500
0@
b000000000010000000001111 B
b00010000000001111 G
b000000010000000011110000 H
b0000000100000000111100000011100001 I
b0000000000000000010000000011110000 K
#32000
b111011000010111101000010 (
b00010000000001111 )
b000000010000000011110000 *
b000000101101010101100111011010 .
b00000000010110101101010011011 /
b000000101101010101100111011010010110 0
b000000000000101101010101100111011010 2
b0000000001011010110101001101100000000 4
b0000000000000000010110101101010011011 6
b000000101011111010110000001010 9
b00000000010101010011101101010 :
b11110110001001000101011110101 ;
b0000000101011111010110000001010 =
b0000000000010101010011101101010 >
b1111011000100100010101111010100 ?
1@
b111011000010111101000010 D
#32500
0@
b000000000010000100010000 B
b00010000100010000 G
b000000010001000101001000 H
b0000000100010001010010000100000000 I
b0000000000000000010001000101001000 K
#33000
b111011000100100010101111 (
b00010000100010000 )
b000000010001000101001000 *
b000000101110110000011110101010 .
b00000000011000001001101111110 /
b000000101110110000011110101010100000 0
b000000000000101110110000011110101010 2
b0000000001100000100110111111010000000 4
b0000000000000000011000001001101111110 6
b000000101101010101100111011010 9
b00000000010110101101010011011 :
b11110110001100010001100110101 ;
b0000000101101010101100111011010 =
b0000000000010110101101010011011 >
b1111011000110001000110011010101 ?
1@
b111011000100100010101111 D
#33500
0@
b000000000010001000010001 B
b00010001000010001 G
b000000010010001000100001 H
b0000000100100010001000010100100001 I
b0000000000000000010010001000100001 K
#34000
b111011000110001000110011 (
b00010001000010001 )
b000000010010001000100001 *
b000000110000001011010101111010 .
b00000000011001101001000010101 /
b000000110000001011010101111010101010 0
b000000000000110000001011010101111010 2
b0000000001100110100100001010101010000 4
b0000000000000000011001101001000010101 6
b000000101110110000011110101010 9
b00000000011000001001101111110 :
b11110110001111011110011100010 ;
b0000000101110110000011110101010 =
b0000000000011000001001101111110 >
b1111011000111101111001110001000 ?
1@
b111011000110001000110011 D
#34500
0@
b000000000010001100010010 B
b00010001100010010 G
b000000010011001101111011 H
b0000000100110011011110110101000100 I
b0000000000000000010011001101111011 K
#35000
b111011000111101111001110 (
b00010001100010010 )
b000000010011001101111011 *
b000000110001100110001101001010 .
b00000000011011001011001011111 /
b000000110001100110001101001010110100 0
b000000000000110001100110001101001010 2
b0000000001101100101100101111101110000 4
b0000000000000000011011001011001011111 6
b000000110000001011010101111010 9
b00000000011001101001000010101 :
b11110110010010101011111111011 ;
b0000000110000001011010101111010 =
b0000000000011001101001000010101 >
b1111011001001010101111111101111 ?
1@
b111011000111101111001110 D
#35500
0@
b000000000010010000010011 B
b00010010000010011 G
b000000010100010101010110 H
b0000000101000101010101100101101001 I
b0000000000000000010100010101010110 K
#36000
b111011001001010101111111 (
b00010010000010011 )
b000000010100010101010110 *
b000000110011000001000100011010 .
b00000000011100110000001011100 /
b000000110011000001000100011010111110 0
b000000000000110011000001000100011010 2
b0000000001110011000000101110011100000 4
b0000000000000000011100110000001011100 6
b000000110001100110001101001010 9
b00000000011011001011001011111 :
b11110110010101111010010000010 ;
b0000000110001100110001101001010 =
b0000000000011011001011001011111 >
b1111011001010111101001000001001 ?
1@
b111011001001010101111111 D
#36500
0@
b000000000010010100010100 B
b00010010100010100 G
b000000010101011110110010 H
b0000000101010111101100100110010000 I
b0000000000000000010101011110110010 K
#37000
b111011001010111101001000 (
b00010010100010100 )
b000000010101011110110010 *
b000000110100011011111011101011 .
b00000000011110011000000001101 /
b000000110100011011111011101011001000 0
b000000000000110100011011111011101011 2
b0000000001111001100000000110110100000 4
b0000000000000000011110011000000001101 6
b000000110011000001000100011010 9
b00000000011100110000001011100 :
b11110110011001001001001110101 ;
b0000000110011000001000100011010 =
b0000000000011100110000001011100 >
b1111011001100100100100111010110 ?
1@
b111011001010111101001000 D
#37500
0@
b000000000010011000010101 B
b00010011000010101 G
b000000010110101010001111 H
b0000000101101010100011110110111001 I
b0000000000000000010110101010001111 K
#38000
b111011001100100100100111 (
b00010011000010101 )
b000000010110101010001111 *
b000000110101110110110010111011 .
b00000000100000000010101110001 /
b000000110101110110110010111011010010 0
b000000000000110101110110110010111011 2
b0000000010000000001010111000110110000 4
b0000000000000000100000000010101110001 6
b000000110100011011111011101011 9
b00000000011110011000000001101 :
b11110110011100011000111010110 ;
b0000000110100011011111011101011 =
b0000000000011110011000000001101 >
b1111011001110001100011101011000 ?
1@
b111011001100100100100111 D
#38500
0@
b000000000010011100010110 B
b00010011100010110 G
b000000010111110111101101 H
b0000000101111101111011010111100100 I
b0000000000000000010111110111101101 K
#39000
b111011001110001100011101 (
b00010011100010110 )
b000000010111110111101101 *
b000000110111010001101010001011 .
b00000000100001110000010001001 /
b000000110111010001101010001011011100 0
b000000000000110111010001101010001011 2
b0000000010000111000001000100100010000 4
b0000000000000000100001110000010001001 6
b000000110101110110110010111011 9
b00000000100000000010101110001 :
b11110110011111101001010100011 ;
b0000000110101110110110010111011 =
b0000000000100000000010101110001 >
b1111011001111110100101010001100 ?
1@
b111011001110001100011101 D
#39500
0@
b000000000010100000010111 B
b00010100000010111 G
b000000011001000111001100 H
b0000000110010001110011001000010001 I
b0000000000000000011001000111001100 K
#40000
b111011001111110100101010 (
b00010100000010111 )
b000000011001000111001100 *
b000000111000101100100001011011 .
b00000000100011100000101010011 /
b000000111000101100100001011011100110 0
b000000000000111000101100100001011011 2
b0000000010001110000010101001111000000 4
b0000000000000000100011100000101010011 6
b000000110111010001101010001011 9
b00000000100001110000010001001 :
b11110110100010111010011011101 ;
b0000000110111010001101010001011 =
b0000000000100001110000010001001 >
b1111011010001011101001101110100 ?
1@
b111011001111110100101010 D
#40500
0@
b000000000010100100011000 B
b00010100100011000 G
b000000011010011000101100 H
b0000000110100110001011001001000000 I
b0000000000000000011010011000101100 K
#41000
b111011010001011101001101 (
b00010100100011000 )
b000000011010011000101100 *
b000000111010000111011000101011 .
b00000000100101010011111010001 /
b000000111010000111011000101011110000 0
b000000000000111010000111011000101011 2
b0000000010010101001111101000111000000 4
b0000000000000000100101010011111010001 6
b000000111000101100100001011011 9
b00000000100011100000101010011 :
b11110110100110001100010000011 ;
b0000000111000101100100001011011 =
b0000000000100011100000101010011 >
b1111011010011000110001000001110 ?
1@
b111011010001011101001101 D
#41500
0@
b000000000010101000011001 B
b00010101000011001 G
b000000011011101100001101 H
b0000000110111011000011011001110001 I
b0000000000000000011011101100001101 K
#42000
b111011010011000110001000 (
b00010101000011001 )
b000000011011101100001101 *
b000000111011100010001111111011 .
b00000000100111001010000000011 /
b000000111011100010001111111011111010 0
b000000000000111011100010001111111011 2
b0000000010011100101000000001100010000 4
b0000000000000000100111001010000000011 6
b000000111010000111011000101011 9
b00000000100101010011111010001 :
b11110110101001011110110010111 ;
b0000000111010000111011000101011 =
b0000000000100101010011111010001 >
b1111011010100101111011001011100 ?
1@
b111011010011000110001000 D
#42500
0@
b000000000010101100011010 B
b00010101100011010 G
b000000011101000001101111 H
b0000000111010000011011111010100100 I
b0000000000000000011101000001101111 K
#43000
b111011010100101111011001 (
b00010101100011010 )
b000000011101000001101111 *
b000000111100111101000111001100 .
b00000000101001000010111100111 /
b000000111100111101000111001100000100 0
b000000000000111100111101000111001100 2
b0000000010100100001011110011110110000 4
b0000000000000000101001000010111100111 6
b000000111011100010001111111011 9
b00000000100111001010000000011 :
b11110110101100110010000010111 ;
b0000000111011100010001111111011 =
b0000000000100111001010000000011 >
b1111011010110011001000001011110 ?
1@
b111011010100101111011001 D
#43500
0@
b000000000010110000011011 B
b00010110000011011 G
b000000011110011001010010 H
b0000000111100110010100101011011001 I
b0000000000000000011110011001010010 K
#44000
b111011010110011001000001 (
b00010110000011011 )
b000000011110011001010010 *
b000000111110010111111110011100 .
b00000000101010111110101111111 /
b000000111110010111111110011100001110 0
b000000000000111110010111111110011100 2
b0000000010101011111010111111110100000 4
b0000000000000000101010111110101111111 6
b000000111100111101000111001100 9
b00000000101001000010111100111 :
b11110110110000000110000000100 ;
b0000000111100111101000111001100 =
b0000000000101001000010111100111 >
b1111011011000000011000000010011 ?
1@
b111011010110011001000001 D
#44500
0@
b000000000010110100011100 B
b00010110100011100 G
b000000011111110010110110 H
b0000000111111100101101101100010000 I
b0000000000000000011111110010110110 K
#45000
b111011011000000011000000 (
b00010110100011100 )
b000000011111110010110110 *
b000000111111110010110101101100 .
b00000000101100111101011001010 /
b000000111111110010110101101100011000 0
b000000000000111111110010110101101100 2
b0000000010110011110101100101011100000 4
b0000000000000000101100111101011001010 6
b000000111110010111111110011100 9
b00000000101010111110101111111 :
b11110110110011011010101011110 ;
b0000000111110010111111110011100 =
b0000000000101010111110101111111 >
b1111011011001101101010101111011 ?
1@
b111011011000000011000000 D
#45500
0@
b000000000010111000011101 B
b00010111000011101 G
b000000100001001110011011 H
b0000001000010011100110111101001001 I
b0000000000000000100001001110011011 K
#46000
b111011011001101101010101 (
b00010111000011101 )
b000000100001001110011011 *
b000001000001001101101100111100 .
b00000000101110111110111001001 /
b000001000001001101101100111100100010 0
b000000000001000001001101101100111100 2
b0000000010111011111011100100101110000 4
b0000000000000000101110111110111001001 6
b000000111111110010110101101100 9
b00000000101100111101011001010 :
b11110110110110110000000100101 ;
b0000000111111110010110101101100 =
b0000000000101100111101011001010 >
b1111011011011011000000010010110 ?
1@
b111011011001101101010101 D
#46500
0@
b000000000010111100011110 B
b00010111100011110 G
b000000100010101100000001 H
b0000001000101011000000011110000100 I
b0000000000000000100010101100000001 K
#47000
b111011011011011000000010 (
b00010111100011110 )
b000000100010101100000001 *
b000001000010101000100100001100 .
b00000000110001000011001111011 /
b000001000010101000100100001100101100 0
b000000000001000010101000100100001100 2
b0000000011000100001100111101101010000 4
b0000000000000000110001000011001111011 6
b000001000001001101101100111100 9
b00000000101110111110111001001 :
b11110110111010000110001011001 ;
b0000001000001001101101100111100 =
b0000000000101110111110111001001 >
b1111011011101000011000101100101 ?
1@
b111011011011011000000010 D
#47500
0@
b000000000011000000011111 B
b00011000000011111 G
b000000100100001011101000 H
b0000001001000010111010001111000001 I
b0000000000000000100100001011101000 K
#48000
b111011011101000011000101 (
b00011000000011111 )
b000000100100001011101000 *
b000001000100000011011011011100 .
b00000000110011001010011100000 /
b000001000100000011011011011100110110 0
b000000000001000100000011011011011100 2
b0000000011001100101001110000010000000 4
b0000000000000000110011001010011100000 6
b000001000010101000100100001100 9
b00000000110001000011001111011 :
b11110110111101011100111111001 ;
b0000001000010101000100100001100 =
b0000000000110001000011001111011 >
b1111011011110101110011111100111 ?
1@
b111011011101000011000101 D
#48500
0@
b000000000011000100100000 B
b00011000100100000 G
b000000100101101101010001 H
b0000001001011011010100010000000000 I
b0000000000000000100101101101010001 K
#49000
b111011011110101110011111 (
b00011000100100000 )
b000000100101101101010001 *
b000001000101011110010010101101 .
b00000000110101010100100000100 /
b000001000101011110010010101101000000 0
b000000000001000101011110010010101101 2
b0000000011010101010010000010001010000 4
b0000000000000000110101010100100000100 6
b000001000100000011011011011100 9
b00000000110011001010011100000 :
b11110111000000110100100000111 ;
b0000001000100000011011011011100 =
b0000000000110011001010011100000 >
b1111011100000011010010000011100 ?
1@
b111011011110101110011111 D
#49500
0@
b000000000011001000100001 B
b00011001000100001 G
b000000100111010000111010 H
b0000001001110100001110100001000001 I
b0000000000000000100111010000111010 K
#50000
b111011100000011010010000 (
b00011001000100001 )
b000000100111010000111010 *
b000001000110111001001001111101 .
b00000000110111100001011010000 /
b000001000110111001001001111101001010 0
b000000000001000110111001001001111101 2
b0000000011011110000101101000000100000 4
b0000000000000000110111100001011010000 6
b000001000101011110010010101101 9
b00000000110101010100100000100 :
b11110111000100001100110000100 ;
b0000001000101011110010010101101 =
b0000000000110101010100100000100 >
b1111011100010000110011000010001 ?
1@
b111011100000011010010000 D
#50500
0@
b000000000011001100100010 B
b00011001100100010 G
b000000101000110110100100 H
b0000001010001101101001000010000100 I
b0000000000000000101000110110100100 K
#51000
b111011100010000110011000 (
b00011001100100010 )
b000000101000110110100100 *
b000001001000010100000001001101 .
b00000000111001110001001001111 /
b000001001000010100000001001101010100 0
b000000000001001000010100000001001101 2
b0000000011100111000100100111101000000 4
b0000000000000000111001110001001001111 6
b000001000110111001001001111101 9
b00000000110111100001011010000 :
b11110111000111100101101101011 ;
b0000001000110111001001001111101 =
b0000000000110111100001011010000 >
b1111011100011110010110110101101 ?
1@
b111011100010000110011000 D
#51500
0@
b000000000011010000100011 B
b00011010000100011 G
b000000101010011110001111 H
b0000001010100111100011110011001001 I
b0000000000000000101010011110001111 K
#52000
b111011100011110010110110 (
b00011010000100011 )
b000000101010011110001111 *
b000001001001101110111000011101 .
b00000000111100000011110000001 /
b000001001001101110111000011101011110 0
b000000000001001001101110111000011101 2
b0000000011110000001111000000110110000 4
b0000000000000000111100000011110000001 6
b000001001000010100000001001101 9
b00000000111001110001001001111 :
b11110111001010111111010111111 ;
b0000001001000010100000001001101 =
b0000000000111001110001001001111 >
b1111011100101011111101011111100 ?
1@
b111011100011110010110110 D
