verilator/dump.vcd
$version Generated by VerilatedVcd $end
$timescale 1ps $end
 $scope module top $end
  $var wire 1 7 clk $end
  $var wire 1 8 rst_b $end
  $var wire 24 9 x [23:0] $end
  $var wire 1 : x_dv $end
  $var wire 24 ; y [23:0] $end
  $var wire 1 < y_dv $end
  $scope module $unit $end
   $var wire 32 E X_I [31:0] $end
   $var wire 32 F X_F [31:0] $end
   $var wire 32 G X_W [31:0] $end
   $var wire 32 E X1_I [31:0] $end
   $var wire 32 H X1_F [31:0] $end
   $var wire 32 I X1_W [31:0] $end
   $var wire 32 J X2_I [31:0] $end
   $var wire 32 K X2_J [31:0] $end
   $var wire 32 L X2_F [31:0] $end
   $var wire 32 L X2_W [31:0] $end
   $var wire 32 M A_I [31:0] $end
   $var wire 32 N A_F [31:0] $end
   $var wire 32 O A_W [31:0] $end
   $var wire 32 M B_I [31:0] $end
   $var wire 32 P B_F [31:0] $end
   $var wire 32 Q B_W [31:0] $end
   $var wire 32 R C_I [31:0] $end
   $var wire 32 S C_F [31:0] $end
   $var wire 32 T C_W [31:0] $end
   $var wire 32 R Y_I [31:0] $end
   $var wire 32 F Y_F [31:0] $end
   $var wire 32 G Y_W [31:0] $end
   $var wire 32 U R_F [31:0] $end
   $var wire 32 R S_I [31:0] $end
   $var wire 32 V S_F [31:0] $end
   $var wire 32 W S_W [31:0] $end
   $var wire 32 J SQ_I [31:0] $end
   $var wire 32 G SQ_F [31:0] $end
   $var wire 32 G SQ_W [31:0] $end
   $var wire 32 M T0_I [31:0] $end
   $var wire 32 V T0_F [31:0] $end
   $var wire 32 X T0_W [31:0] $end
   $var wire 32 M T1_I [31:0] $end
   $var wire 32 V T1_F [31:0] $end
   $var wire 32 X T1_W [31:0] $end
   $var wire 32 R T2_I [31:0] $end
   $var wire 32 V T2_F [31:0] $end
   $var wire 32 W T2_W [31:0] $end
  $upscope $end
  $scope module quadra_top $end
   $var wire 1 7 clk $end
   $var wire 1 8 rst_b $end
   $var wire 24 9 x [23:0] $end
   $var wire 1 : x_dv $end
   $var wire 24 ; y [23:0] $end
   $var wire 1 < y_dv $end
   $var wire 1 % dv_p0 $end
   $var wire 1 & dv_p1 $end
   $var wire 1 ' dv_p2 $end
   $var wire 24 ( y_int [23:0] $end
   $scope module u_quadra $end
    $var wire 1 7 clk $end
    $var wire 1 8 rst_b $end
    $var wire 24 9 x [23:0] $end
    $var wire 24 ( y [23:0] $end
    $var wire 7 = x1_w [6:0] $end
    $var wire 17 > x2_w [16:0] $end
    $var wire 24 ? sq_w [23:0] $end
    $var wire 25 " a_w [24:0] $end
    $var wire 19 # b_w [18:0] $end
    $var wire 13 $ c_w [12:0] $end
    $var wire 17 ) x2_r1 [16:0] $end
    $var wire 24 * sq_r1 [23:0] $end
    $var wire 25 + a_r1 [24:0] $end
    $var wire 19 , b_r1 [18:0] $end
    $var wire 13 - c_r1 [12:0] $end
    $var wire 30 . t1_w [29:0] $end
    $var wire 29 D t2_w [28:0] $end
    $var wire 36 / t1_w_full [35:0] $end
    $var wire 36 1 t1_w_shifted [35:0] $end
    $var wire 30 3 t0_r2 [29:0] $end
    $var wire 30 4 t1_r2 [29:0] $end
    $var wire 29 5 t2_r2 [28:0] $end
    $var wire 29 6 s_w [28:0] $end
    $var wire 24 ( y_r [23:0] $end
    $scope module u_lut $end
     $var wire 7 = x1 [6:0] $end
     $var wire 25 " a [24:0] $end
     $var wire 19 # b [18:0] $end
     $var wire 13 $ c [12:0] $end
    $upscope $end
    $scope module u_square $end
     $var wire 17 > x2 [16:0] $end
     $var wire 24 ? sq [23:0] $end
     $var wire 34 @ sq_full [33:0] $end
     $var wire 34 B sq_full_shifted [33:0] $end
    $upscope $end
   $upscope $end
  $upscope $end
 $upscope $end
$enddefinitions $end


#500
b1110100101011111011000011 "
b0010110101000001010 #
b0101101010000 $
1%
0&
0'
b100001101111101111001001 (
b00111101001010101 )
b010000000001000110011001 *
b1111011111001111001100011 +
b0111110111001100101 ,
b0110111010111 -
b000111100000111010100100100110 .
b000111100000111010100100100110001001 /
b000000000111100000111010100100100110 1
b100001101011001110010000011101 3
b011111010010100010011111001100 4
b01000110111011010101010010111 5
b01001110101001011011010000000 6
07
18
b000000000000000000000000 9
0:
b100001101111101111001001 ;
0<
b0000000 =
b00000000000000000 >
b000000000000000000000000 ?
b0000000000000000000000000000000000 @
b0000000000000000000000000000000000 B
b00000000000000000000000000001 D
b00000000000000000000000000000001 E
b00000000000000000000000000010111 F
b00000000000000000000000000011000 G
b00000000000000000000000000000110 H
b00000000000000000000000000000111 I
b00000000000000000000000000000000 J
b11111111111111111111111111111010 K
b00000000000000000000000000010001 L
b00000000000000000000000000000011 M
b00000000000000000000000000010110 N
b00000000000000000000000000011001 O
b00000000000000000000000000010000 P
b00000000000000000000000000010011 Q
b00000000000000000000000000000010 R
b00000000000000000000000000001011 S
b00000000000000000000000000001101 T
b00000000000000000000000000000100 U
b00000000000000000000000000011011 V
b00000000000000000000000000011101 W
b00000000000000000000000000011110 X
#1000
0%
1&
b010011101010010110110100 (
b00000000000000000 )
b000000000000000000000000 *
b1110100101011111011000011 +
b0010110101000001010 ,
b0101101010000 -
b000000000000000000000000000000 .
b000000000000000000000000000000000000 /
b000000000000000000000000000000000000 1
b000000000000000000000000000000 3
b000111100000111010100100100110 4
b00000000000000000000000000001 5
b00111100000111010100100100111 6
17
b010011101010010110110100 ;
#1500
07
08
#2000
0&
b000000000000000000000000 (
b0000000000000000000000000 +
b0000000000000000000 ,
b0000000000000 -
b000000000000000000000000000000 4
b00000000000000000000000000000 5
b00000000000000000000000000000 6
17
b000000000000000000000000 ;
#2500
07
18
#3000
b1110100101011111011000011 +
b0010110101000001010 ,
b0101101010000 -
b00000000000000000000000000001 5
b00000000000000000000000000001 6
17
#3500
07
#4000
17
#4500
07
#5000
17
#5500
07
#6000
17
#6500
07
#7000
17
#7500
07
#8000
17
#8500
07
#9000
17
#9500
07
#10000
17
#10500
07
#11000
17
#11500
07
#12000
17
#12500
07
#13000
17
#13500
07
#14000
17
#14500
07
#15000
17
#15500
07
b000000000000111111111111 9
1:
b00000111111111111 >
b000000000011111111111000 ?
b0000000000111111111110000000000001 @
b0000000000000000000011111111111000 B
#16000
1%
b00000111111111111 )
b000000000011111111111000 *
b000000010110100111110011010111 .
b000000010110100111110011010111110110 /
b000000000000010110100111110011010111 1
17
#16500
07
b000000000001000100000000 9
b00001000100000000 >
b000000000100100001000000 ?
b0000000001001000010000000000000000 @
b0000000000000000000100100001000000 B
#17000
1&
b00001000100000000 )
b000000000100100001000000 *
b000000011000000010101010101000 .
b000000011000000010101010101000000000 /
b000000000000011000000010101010101000 1
b000000010110100111110011010111 4
b00000010110100111110011011000 6
17
#17500
07
b000000000001001000000001 9
b00001001000000001 >
b000000000101000100001001 ?
b0000000001010001000010010000000001 @
b0000000000000000000101000100001001 B
#18000
1'
b000000101101001111100110 (
b00001001000000001 )
b000000000101000100001001 *
b000000011001011101100001111000 .
b000000011001011101100001111000001010 /
b000000000000011001011101100001111000 1
b000000011000000010101010101000 4
b00000011000000010101010101001 6
17
b000000101101001111100110 ;
1<
#18500
07
b000000000001001100000010 9
b00001001100000010 >
b000000000101101001010011 ?
b0000000001011010010100110000000100 @
b0000000000000000000101101001010011 B
#19000
b000000110000000101010101 (
b00001001100000010 )
b000000000101101001010011 *
b000000011010111000011001001000 .
b000000011010111000011001001000010100 /
b000000000000011010111000011001001000 1
b000000011001011101100001111000 4
b00000011001011101100001111001 6
17
b000000110000000101010101 ;
#19500
07
b000000000001010000000011 9
b00001010000000011 >
b000000000110010000011110 ?
b0000000001100100000111100000001001 @
b0000000000000000000110010000011110 B
#20000
b000000110010111011000011 (
b00001010000000011 )
b000000000110010000011110 *
b000000011100010011010000011000 .
b000000011100010011010000011000011110 /
b000000000000011100010011010000011000 1
b000000011010111000011001001000 4
b00000011010111000011001001001 6
17
b000000110010111011000011 ;
#20500
07
b000000000001010100000100 9
b00001010100000100 >
b000000000110111001101010 ?
b0000000001101110011010100000010000 @
b0000000000000000000110111001101010 B
#21000
b000000110101110000110010 (
b00001010100000100 )
b000000000110111001101010 *
b000000011101101110000111101000 .
b000000011101101110000111101000101000 /
b000000000000011101101110000111101000 1
b000000011100010011010000011000 4
b00000011100010011010000011001 6
17
b000000110101110000110010 ;
#21500
07
b000000000001011000000101 9
b00001011000000101 >
b000000000111100100110111 ?
b0000000001111001001101110000011001 @
b0000000000000000000111100100110111 B
#22000
b000000111000100110100000 (
b00001011000000101 )
b000000000111100100110111 *
b000000011111001000111110111000 .
b000000011111001000111110111000110010 /
b000000000000011111001000111110111000 1
b000000011101101110000111101000 4
b00000011101101110000111101001 6
17
b000000111000100110100000 ;
#22500
07
b000000000001011100000110 9
b00001011100000110 >
b000000001000010010000101 ?
b0000000010000100100001010000100100 @
b0000000000000000001000010010000101 B
#23000
b000000111011011100001111 (
b00001011100000110 )
b000000001000010010000101 *
b000000100000100011110110001000 .
b000000100000100011110110001000111100 /
b000000000000100000100011110110001000 1
b000000011111001000111110111000 4
b00000011111001000111110111001 6
17
b000000111011011100001111 ;
#23500
07
b000000000001100000000111 9
b00001100000000111 >
b000000001001000001010100 ?
b0000000010010000010101000000110001 @
b0000000000000000001001000001010100 B
#24000
b000000111110010001111101 (
b00001100000000111 )
b000000001001000001010100 *
b000000100001111110101101011001 .
b000000100001111110101101011001000110 /
b000000000000100001111110101101011001 1
b000000100000100011110110001000 4
b00000100000100011110110001001 6
17
b000000111110010001111101 ;
#24500
07
b000000000001100100001000 9
b00001100100001000 >
b000000001001110010100100 ?
b0000000010011100101001000001000000 @
b0000000000000000001001110010100100 B
#25000
b000001000001000111101100 (
b00001100100001000 )
b000000001001110010100100 *
b000000100011011001100100101001 .
b000000100011011001100100101001010000 /
b000000000000100011011001100100101001 1
b000000100001111110101101011001 4
b00000100001111110101101011010 6
17
b000001000001000111101100 ;
#25500
07
b000000000001101000001001 9
b00001101000001001 >
b000000001010100101110101 ?
b0000000010101001011101010001010001 @
b0000000000000000001010100101110101 B
#26000
b000001000011111101011010 (
b00001101000001001 )
b000000001010100101110101 *
b000000100100110100011011111001 .
b000000100100110100011011111001011010 /
b000000000000100100110100011011111001 1
b000000100011011001100100101001 4
b00000100011011001100100101010 6
17
b000001000011111101011010 ;
#26500
07
b000000000001101100001010 9
b00001101100001010 >
b000000001011011011000111 ?
b0000000010110110110001110001100100 @
b0000000000000000001011011011000111 B
#27000
b000001000110110011001001 (
b00001101100001010 )
b000000001011011011000111 *
b000000100110001111010011001001 .
b000000100110001111010011001001100100 /
b000000000000100110001111010011001001 1
b000000100100110100011011111001 4
b00000100100110100011011111010 6
17
b000001000110110011001001 ;
#27500
07
b000000000001110000001011 9
b00001110000001011 >
b000000001100010010011010 ?
b0000000011000100100110100001111001 @
b0000000000000000001100010010011010 B
#28000
b000001001001101000110111 (
b00001110000001011 )
b000000001100010010011010 *
b000000100111101010001010011001 .
b000000100111101010001010011001101110 /
b000000000000100111101010001010011001 1
b000000100110001111010011001001 4
b00000100110001111010011001010 6
17
b000001001001101000110111 ;
#28500
07
b000000000001110100001100 9
b00001110100001100 >
b000000001101001011101110 ?
b0000000011010010111011100010010000 @
b0000000000000000001101001011101110 B
#29000
b000001001100011110100110 (
b00001110100001100 )
b000000001101001011101110 *
b000000101001000101000001101001 .
b000000101001000101000001101001111000 /
b000000000000101001000101000001101001 1
b000000100111101010001010011001 4
b00000100111101010001010011010 6
17
b000001001100011110100110 ;
#29500
07
b000000000001111000001101 9
b00001111000001101 >
b000000001110000111000011 ?
b0000000011100001110000110010101001 @
b0000000000000000001110000111000011 B
#30000
b000001001111010100010100 (
b00001111000001101 )
b000000001110000111000011 *
b000000101010011111111000111010 .
b000000101010011111111000111010000010 /
b000000000000101010011111111000111010 1
b000000101001000101000001101001 4
b00000101001000101000001101010 6
17
b000001001111010100010100 ;
#30500
07
b000000000001111100001110 9
b00001111100001110 >
b000000001111000100011001 ?
b0000000011110001000110010011000100 @
b0000000000000000001111000100011001 B
#31000
b000001010010001010000011 (
b00001111100001110 )
b000000001111000100011001 *
b000000101011111010110000001010 .
b000000101011111010110000001010001100 /
b000000000000101011111010110000001010 1
b000000101010011111111000111010 4
b00000101010011111111000111011 6
17
b000001010010001010000011 ;
#31500
07
b000000000010000000001111 9
b00010000000001111 >
b000000010000000011110000 ?
b0000000100000000111100000011100001 @
b0000000000000000010000000011110000 B
#32000
b000001010100111111110001 (
b00010000000001111 )
b000000010000000011110000 *
b000000101101010101100111011010 .
b000000101101010101100111011010010110 /
b000000000000101101010101100111011010 1
b000000101011111010110000001010 4
b00000101011111010110000001011 6
17
b000001010100111111110001 ;
#32500
07
b000000000010000100010000 9
b00010000100010000 >
b000000010001000101001000 ?
b0000000100010001010010000100000000 @
b0000000000000000010001000101001000 B
#33000
b000001010111110101100000 (
b00010000100010000 )
b000000010001000101001000 *
b000000101110110000011110101010 .
b000000101110110000011110101010100000 /
b000000000000101110110000011110101010 1
b000000101101010101100111011010 4
b00000101101010101100111011011 6
17
b000001010111110101100000 ;
#33500
07
b000000000010001000010001 9
b00010001000010001 >
b000000010010001000100001 ?
b0000000100100010001000010100100001 @
b0000000000000000010010001000100001 B
#34000
b000001011010101011001110 (
b00010001000010001 )
b000000010010001000100001 *
b000000110000001011010101111010 .
b000000110000001011010101111010101010 /
b000000000000110000001011010101111010 1
b000000101110110000011110101010 4
b00000101110110000011110101011 6
17
b000001011010101011001110 ;
#34500
07
b000000000010001100010010 9
b00010001100010010 >
b000000010011001101111011 ?
b0000000100110011011110110101000100 @
b0000000000000000010011001101111011 B
#35000
b000001011101100000111101 (
b00010001100010010 )
b000000010011001101111011 *
b000000110001100110001101001010 .
b000000110001100110001101001010110100 /
b000000000000110001100110001101001010 1
b000000110000001011010101111010 4
b00000110000001011010101111011 6
17
b000001011101100000111101 ;
#35500
07
b000000000010010000010011 9
b00010010000010011 >
b000000010100010101010110 ?
b0000000101000101010101100101101001 @
b0000000000000000010100010101010110 B
#36000
b000001100000010110101011 (
b00010010000010011 )
b000000010100010101010110 *
b000000110011000001000100011010 .
b000000110011000001000100011010111110 /
b000000000000110011000001000100011010 1
b000000110001100110001101001010 4
b00000110001100110001101001011 6
17
b000001100000010110101011 ;
#36500
07
b000000000010010100010100 9
b00010010100010100 >
b000000010101011110110010 ?
b0000000101010111101100100110010000 @
b0000000000000000010101011110110010 B
#37000
b000001100011001100011010 (
b00010010100010100 )
b000000010101011110110010 *
b000000110100011011111011101011 .
b000000110100011011111011101011001000 /
b000000000000110100011011111011101011 1
b000000110011000001000100011010 4
b00000110011000001000100011011 6
17
b000001100011001100011010 ;
#37500
07
b000000000010011000010101 9
b00010011000010101 >
b000000010110101010001111 ?
b0000000101101010100011110110111001 @
b0000000000000000010110101010001111 B
#38000
b000001100110000010001000 (
b00010011000010101 )
b000000010110101010001111 *
b000000110101110110110010111011 .
b000000110101110110110010111011010010 /
b000000000000110101110110110010111011 1
b000000110100011011111011101011 4
b00000110100011011111011101100 6
17
b000001100110000010001000 ;
#38500
07
b000000000010011100010110 9
b00010011100010110 >
b000000010111110111101101 ?
b0000000101111101111011010111100100 @
b0000000000000000010111110111101101 B
#39000
b000001101000110111110111 (
b00010011100010110 )
b000000010111110111101101 *
b000000110111010001101010001011 .
b000000110111010001101010001011011100 /
b000000000000110111010001101010001011 1
b000000110101110110110010111011 4
b00000110101110110110010111100 6
17
b000001101000110111110111 ;
#39500
07
b000000000010100000010111 9
b00010100000010111 >
b000000011001000111001100 ?
b0000000110010001110011001000010001 @
b0000000000000000011001000111001100 B
#40000
b000001101011101101100101 (
b00010100000010111 )
b000000011001000111001100 *
b000000111000101100100001011011 .
b000000111000101100100001011011100110 /
b000000000000111000101100100001011011 1
b000000110111010001101010001011 4
b00000110111010001101010001100 6
17
b000001101011101101100101 ;
#40500
07
b000000000010100100011000 9
b00010100100011000 >
b000000011010011000101100 ?
b0000000110100110001011001001000000 @
b0000000000000000011010011000101100 B
#41000
b000001101110100011010100 (
b00010100100011000 )
b000000011010011000101100 *
b000000111010000111011000101011 .
b000000111010000111011000101011110000 /
b000000000000111010000111011000101011 1
b000000111000101100100001011011 4
b00000111000101100100001011100 6
17
b000001101110100011010100 ;
#41500
07
b000000000010101000011001 9
b00010101000011001 >
b000000011011101100001101 ?
b0000000110111011000011011001110001 @
b0000000000000000011011101100001101 B
#42000
b000001110001011001000010 (
b00010101000011001 )
b000000011011101100001101 *
b000000111011100010001111111011 .
b000000111011100010001111111011111010 /
b000000000000111011100010001111111011 1
b000000111010000111011000101011 4
b00000111010000111011000101100 6
17
b000001110001011001000010 ;
#42500
07
b000000000010101100011010 9
b00010101100011010 >
b000000011101000001101111 ?
b0000000111010000011011111010100100 @
b0000000000000000011101000001101111 B
#43000
b000001110100001110110001 (
b00010101100011010 )
b000000011101000001101111 *
b000000111100111101000111001100 .
b000000111100111101000111001100000100 /
b000000000000111100111101000111001100 1
b000000111011100010001111111011 4
b00000111011100010001111111100 6
17
b000001110100001110110001 ;
#43500
07
b000000000010110000011011 9
b00010110000011011 >
b000000011110011001010010 ?
b0000000111100110010100101011011001 @
b0000000000000000011110011001010010 B
#44000
b000001110111000100011111 (
b00010110000011011 )
b000000011110011001010010 *
b000000111110010111111110011100 .
b000000111110010111111110011100001110 /
b000000000000111110010111111110011100 1
b000000111100111101000111001100 4
b00000111100111101000111001101 6
17
b000001110111000100011111 ;
#44500
07
b000000000010110100011100 9
b00010110100011100 >
b000000011111110010110110 ?
b0000000111111100101101101100010000 @
b0000000000000000011111110010110110 B
#45000
b000001111001111010001110 (
b00010110100011100 )
b000000011111110010110110 *
b000000111111110010110101101100 .
b000000111111110010110101101100011000 /
b000000000000111111110010110101101100 1
b000000111110010111111110011100 4
b00000111110010111111110011101 6
17
b000001111001111010001110 ;
#45500
07
b000000000010111000011101 9
b00010111000011101 >
b000000100001001110011011 ?
b0000001000010011100110111101001001 @
b0000000000000000100001001110011011 B
#46000
b000001111100101111111100 (
b00010111000011101 )
b000000100001001110011011 *
b000001000001001101101100111100 .
b000001000001001101101100111100100010 /
b000000000001000001001101101100111100 1
b000000111111110010110101101100 4
b00000111111110010110101101101 6
17
b000001111100101111111100 ;
#46500
07
b000000000010111100011110 9
b00010111100011110 >
b000000100010101100000001 ?
b0000001000101011000000011110000100 @
b0000000000000000100010101100000001 B
#47000
b000001111111100101101011 (
b00010111100011110 )
b000000100010101100000001 *
b000001000010101000100100001100 .
b000001000010101000100100001100101100 /
b000000000001000010101000100100001100 1
b000001000001001101101100111100 4
b00001000001001101101100111101 6
17
b000001111111100101101011 ;
#47500
07
b000000000011000000011111 9
b00011000000011111 >
b000000100100001011101000 ?
b0000001001000010111010001111000001 @
b0000000000000000100100001011101000 B
#48000
b000010000010011011011001 (
b00011000000011111 )
b000000100100001011101000 *
b000001000100000011011011011100 .
b000001000100000011011011011100110110 /
b000000000001000100000011011011011100 1
b000001000010101000100100001100 4
b00001000010101000100100001101 6
17
b000010000010011011011001 ;
#48500
07
b000000000011000100100000 9
b00011000100100000 >
b000000100101101101010001 ?
b0000001001011011010100010000000000 @
b0000000000000000100101101101010001 B
#49000
b000010000101010001001000 (
b00011000100100000 )
b000000100101101101010001 *
b000001000101011110010010101101 .
b000001000101011110010010101101000000 /
b000000000001000101011110010010101101 1
b000001000100000011011011011100 4
b00001000100000011011011011101 6
17
b000010000101010001001000 ;
#49500
07
b000000000011001000100001 9
b00011001000100001 >
b000000100111010000111010 ?
b0000001001110100001110100001000001 @
b0000000000000000100111010000111010 B
#50000
b000010001000000110110110 (
b00011001000100001 )
b000000100111010000111010 *
b000001000110111001001001111101 .
b000001000110111001001001111101001010 /
b000000000001000110111001001001111101 1
b000001000101011110010010101101 4
b00001000101011110010010101110 6
17
b000010001000000110110110 ;
#50500
07
b000000000011001100100010 9
b00011001100100010 >
b000000101000110110100100 ?
b0000001010001101101001000010000100 @
b0000000000000000101000110110100100 B
#51000
b000010001010111100100101 (
b00011001100100010 )
b000000101000110110100100 *
b000001001000010100000001001101 .
b000001001000010100000001001101010100 /
b000000000001001000010100000001001101 1
b000001000110111001001001111101 4
b00001000110111001001001111110 6
17
b000010001010111100100101 ;
#51500
07
b000000000011010000100011 9
b00011010000100011 >
b000000101010011110001111 ?
b0000001010100111100011110011001001 @
b0000000000000000101010011110001111 B
#52000
b000010001101110010010011 (
b00011010000100011 )
b000000101010011110001111 *
b000001001001101110111000011101 .
b000001001001101110111000011101011110 /
b000000000001001001101110111000011101 1
b000001001000010100000001001101 4
b00001001000010100000001001110 6
17
b000010001101110010010011 ;
#52500
07
b000000000011010100100100 9
b00011010100100100 >
b000000101100000111111011 ?
b0000001011000001111110110100010000 @
b0000000000000000101100000111111011 B
#53000
b000010010000101000000010 (
b00011010100100100 )
b000000101100000111111011 *
b000001001011001001101111101101 .
b000001001011001001101111101101101000 /
b000000000001001011001001101111101101 1
b000001001001101110111000011101 4
b00001001001101110111000011110 6
17
b000010010000101000000010 ;
#53500
07
b000000000011011000100101 9
b00011011000100101 >
b000000101101110011101000 ?
b0000001011011100111010000101011001 @
b0000000000000000101101110011101000 B
#54000
b000010010011011101110000 (
b00011011000100101 )
b000000101101110011101000 *
b000001001100100100100110111101 .
b000001001100100100100110111101110010 /
b000000000001001100100100100110111101 1
b000001001011001001101111101101 4
b00001001011001001101111101110 6
17
b000010010011011101110000 ;
#54500
07
b000000000011011100100110 9
b00011011100100110 >
b000000101111100001010110 ?
b0000001011111000010101100110100100 @
b0000000000000000101111100001010110 B
#55000
b000010010110010011011111 (
b00011011100100110 )
b000000101111100001010110 *
b000001001101111111011110001101 .
b000001001101111111011110001101111100 /
b000000000001001101111111011110001101 1
b000001001100100100100110111101 4
b00001001100100100100110111110 6
17
b000010010110010011011111 ;
#55500
07
b000000000011100000100111 9
b00011100000100111 >
b000000110001010001000101 ?
b0000001100010100010001010111110001 @
b0000000000000000110001010001000101 B
#56000
b000010011001001001001101 (
b00011100000100111 )
b000000110001010001000101 *
b000001001111011010010101011110 .
b000001001111011010010101011110000110 /
b000000000001001111011010010101011110 1
b000001001101111111011110001101 4
b00001001101111111011110001110 6
17
b000010011001001001001101 ;
#56500
07
b000000000011100100101000 9
b00011100100101000 >
b000000110011000010110101 ?
b0000001100110000101101011001000000 @
b0000000000000000110011000010110101 B
#57000
b000010011011111110111100 (
b00011100100101000 )
b000000110011000010110101 *
b000001010000110101001100101110 .
b000001010000110101001100101110010000 /
b000000000001010000110101001100101110 1
b000001001111011010010101011110 4
b00001001111011010010101011111 6
17
b000010011011111110111100 ;
#57500
07
b000000000011101000101001 9
b00011101000101001 >
b000000110100110110100110 ?
b0000001101001101101001101010010001 @
b0000000000000000110100110110100110 B
#58000
b000010011110110100101010 (
b00011101000101001 )
b000000110100110110100110 *
b000001010010010000000011111110 .
b000001010010010000000011111110011010 /
b000000000001010010010000000011111110 1
b000001010000110101001100101110 4
b00001010000110101001100101111 6
17
b000010011110110100101010 ;
#58500
07
b000000000011101100101010 9
b00011101100101010 >
b000000110110101100011000 ?
b0000001101101011000110001011100100 @
b0000000000000000110110101100011000 B
#59000
b000010100001101010011001 (
b00011101100101010 )
b000000110110101100011000 *
b000001010011101010111011001110 .
b000001010011101010111011001110100100 /
b000000000001010011101010111011001110 1
b000001010010010000000011111110 4
b00001010010010000000011111111 6
17
b000010100001101010011001 ;
#59500
07
b000000000011110000101011 9
b00011110000101011 >
b000000111000100100001011 ?
b0000001110001001000010111100111001 @
b0000000000000000111000100100001011 B
#60000
b000010100100100000000111 (
b00011110000101011 )
b000000111000100100001011 *
b000001010101000101110010011110 .
b000001010101000101110010011110101110 /
b000000000001010101000101110010011110 1
b000001010011101010111011001110 4
b00001010011101010111011001111 6
17
b000010100100100000000111 ;
#60500
07
b000000000011110100101100 9
b00011110100101100 >
b000000111010011101111111 ?
b0000001110100111011111111110010000 @
b0000000000000000111010011101111111 B
#61000
b000010100111010101110110 (
b00011110100101100 )
b000000111010011101111111 *
b000001010110100000101001101110 .
b000001010110100000101001101110111000 /
b000000000001010110100000101001101110 1
b000001010101000101110010011110 4
b00001010101000101110010011111 6
17
b000010100111010101110110 ;
#61500
07
b000000000011111000101101 9
b00011111000101101 >
b000000111100011001110100 ?
b0000001111000110011101001111101001 @
b0000000000000000111100011001110100 B
#62000
b000010101010001011100100 (
b00011111000101101 )
b000000111100011001110100 *
b000001010111111011100000111111 .
b000001010111111011100000111111000010 /
b000000000001010111111011100000111111 1
b000001010110100000101001101110 4
b00001010110100000101001101111 6
17
b000010101010001011100100 ;
#62500
07
b000000000011111100101110 9
b00011111100101110 >
b000000111110010111101011 ?
b0000001111100101111010110001000100 @
b0000000000000000111110010111101011 B
#63000
b000010101101000001010011 (
b00011111100101110 )
b000000111110010111101011 *
b000001011001010110011000001111 .
b000001011001010110011000001111001100 /
b000000000001011001010110011000001111 1
b000001010111111011100000111111 4
b00001010111111011100001000000 6
17
b000010101101000001010011 ;
#63500
07
b000000000100000000101111 9
b00100000000101111 >
b000001000000010111100010 ?
b0000010000000101111000100010100001 @
b0000000000000001000000010111100010 B
#64000
b000010101111110111000010 (
b00100000000101111 )
b000001000000010111100010 *
b000001011010110001001111011111 .
b000001011010110001001111011111010110 /
b000000000001011010110001001111011111 1
b000001011001010110011000001111 4
b00001011001010110011000010000 6
17
b000010101111110111000010 ;
#64500
07
b000000000100000100110000 9
b00100000100110000 >
b000001000010011001011010 ?
b0000010000100110010110100100000000 @
b0000000000000001000010011001011010 B
#65000
b000010110010101100110000 (
b00100000100110000 )
b000001000010011001011010 *
b000001011100001100000110101111 .
b000001011100001100000110101111100000 /
b000000000001011100001100000110101111 1
b000001011010110001001111011111 4
b00001011010110001001111100000 6
17
b000010110010101100110000 ;
#65500
07
b000000000100001000110001 9
b00100001000110001 >
b000001000100011101010011 ?
b0000010001000111010100110101100001 @
b0000000000000001000100011101010011 B
#66000
b000010110101100010011111 (
b00100001000110001 )
b000001000100011101010011 *
b000001011101100110111101111111 .
b000001011101100110111101111111101010 /
b000000000001011101100110111101111111 1
b000001011100001100000110101111 4
b00001011100001100000110110000 6
17
b000010110101100010011111 ;
#66500
07
b000000000100001100110010 9
b00100001100110010 >
b000001000110100011001101 ?
b0000010001101000110011010111000100 @
b0000000000000001000110100011001101 B
#67000
b000010111000011000001101 (
b00100001100110010 )
b000001000110100011001101 *
b000001011111000001110101001111 .
b000001011111000001110101001111110100 /
b000000000001011111000001110101001111 1
b000001011101100110111101111111 4
b00001011101100110111110000000 6
17
b000010111000011000001101 ;
#67500
07
b000000000100010000110011 9
b00100010000110011 >
b000001001000101011001000 ?
b0000010010001010110010001000101001 @
b0000000000000001001000101011001000 B
#68000
b000010111011001101111100 (
b00100010000110011 )
b000001001000101011001000 *
b000001100000011100101100011111 .
b000001100000011100101100011111111110 /
b000000000001100000011100101100011111 1
b000001011111000001110101001111 4
b00001011111000001110101010000 6
17
b000010111011001101111100 ;
#68500
07
b000000000100010100110100 9
b00100010100110100 >
b000001001010110101000100 ?
b0000010010101101010001001010010000 @
b0000000000000001001010110101000100 B
#69000
b000010111110000011101010 (
b00100010100110100 )
b000001001010110101000100 *
b000001100001110111100011110000 .
b000001100001110111100011110000001000 /
b000000000001100001110111100011110000 1
b000001100000011100101100011111 4
b00001100000011100101100100000 6
17
b000010111110000011101010 ;
#69500
07
b000000000100011000110101 9
b00100011000110101 >
b000001001101000001000001 ?
b0000010011010000010000011011111001 @
b0000000000000001001101000001000001 B
#70000
b000011000000111001011001 (
b00100011000110101 )
b000001001101000001000001 *
b000001100011010010011011000000 .
b000001100011010010011011000000010010 /
b000000000001100011010010011011000000 1
b000001100001110111100011110000 4
b00001100001110111100011110001 6
17
b000011000000111001011001 ;
#70500
07
b000000000100011100110110 9
b00100011100110110 >
b000001001111001110111111 ?
b0000010011110011101111111101100100 @
b0000000000000001001111001110111111 B
#71000
b000011000011101111000111 (
b00100011100110110 )
b000001001111001110111111 *
b000001100100101101010010010000 .
b000001100100101101010010010000011100 /
b000000000001100100101101010010010000 1
b000001100011010010011011000000 4
b00001100011010010011011000001 6
17
b000011000011101111000111 ;
#71500
07
b000000000100100000110111 9
b00100100000110111 >
b000001010001011110111110 ?
b0000010100010111101111101111010001 @
b0000000000000001010001011110111110 B
#72000
b000011000110100100110110 (
b00100100000110111 )
b000001010001011110111110 *
b000001100110001000001001100000 .
b000001100110001000001001100000100110 /
b000000000001100110001000001001100000 1
b000001100100101101010010010000 4
b00001100100101101010010010001 6
17
b000011000110100100110110 ;
#72500
07
b000000000100100100111000 9
b00100100100111000 >
b000001010011110000111111 ?
b0000010100111100001111110001000000 @
b0000000000000001010011110000111111 B
#73000
b000011001001011010100100 (
b00100100100111000 )
b000001010011110000111111 *
b000001100111100011000000110000 .
b000001100111100011000000110000110000 /
b000000000001100111100011000000110000 1
b000001100110001000001001100000 4
b00001100110001000001001100001 6
17
b000011001001011010100100 ;
#73500
07
b000000000100101000111001 9
b00100101000111001 >
b000001010110000101000000 ?
b0000010101100001010000000010110001 @
b0000000000000001010110000101000000 B
#74000
b000011001100010000010011 (
b00100101000111001 )
b000001010110000101000000 *
b000001101000111101111000000000 .
b000001101000111101111000000000111010 /
b000000000001101000111101111000000000 1
b000001100111100011000000110000 4
b00001100111100011000000110001 6
17
b000011001100010000010011 ;
#74500
07
b000000000100101100111010 9
b00100101100111010 >
b000001011000011011000010 ?
b0000010110000110110000100100100100 @
b0000000000000001011000011011000010 B
