verilator/dump.vcd
$version Generated by VerilatedVcd $end
$timescale 1ps $end
 $scope module top $end
  $var wire 1 4 clk $end
  $var wire 1 5 rst_b $end
  $var wire 24 6 x [23:0] $end
  $var wire 1 7 x_dv $end
  $var wire 24 8 y [23:0] $end
  $var wire 1 9 y_dv $end
  $scope module $unit $end
   $var wire 32 A X_I [31:0] $end
   $var wire 32 B X_F [31:0] $end
   $var wire 32 C X_W [31:0] $end
   $var wire 32 A X1_I [31:0] $end
   $var wire 32 D X1_F [31:0] $end
   $var wire 32 E X1_W [31:0] $end
   $var wire 32 F X2_I [31:0] $end
   $var wire 32 G X2_J [31:0] $end
   $var wire 32 H X2_F [31:0] $end
   $var wire 32 H X2_W [31:0] $end
   $var wire 32 I A_I [31:0] $end
   $var wire 32 J A_F [31:0] $end
   $var wire 32 K A_W [31:0] $end
   $var wire 32 I B_I [31:0] $end
   $var wire 32 J B_F [31:0] $end
   $var wire 32 K B_W [31:0] $end
   $var wire 32 I C_I [31:0] $end
   $var wire 32 J C_F [31:0] $end
   $var wire 32 K C_W [31:0] $end
   $var wire 32 L Y_I [31:0] $end
   $var wire 32 B Y_F [31:0] $end
   $var wire 32 C Y_W [31:0] $end
   $var wire 32 I R_F [31:0] $end
   $var wire 32 L S_I [31:0] $end
   $var wire 32 M S_F [31:0] $end
   $var wire 32 N S_W [31:0] $end
   $var wire 32 F SQ_I [31:0] $end
   $var wire 32 C SQ_F [31:0] $end
   $var wire 32 C SQ_W [31:0] $end
   $var wire 32 I T0_I [31:0] $end
   $var wire 32 M T0_F [31:0] $end
   $var wire 32 O T0_W [31:0] $end
   $var wire 32 I T1_I [31:0] $end
   $var wire 32 M T1_F [31:0] $end
   $var wire 32 O T1_W [31:0] $end
   $var wire 32 I T2_I [31:0] $end
   $var wire 32 M T2_F [31:0] $end
   $var wire 32 O T2_W [31:0] $end
  $upscope $end
  $scope module quadra_top $end
   $var wire 1 4 clk $end
   $var wire 1 5 rst_b $end
   $var wire 24 6 x [23:0] $end
   $var wire 1 7 x_dv $end
   $var wire 24 8 y [23:0] $end
   $var wire 1 9 y_dv $end
   $var wire 1 % dv_p0 $end
   $var wire 1 & dv_p1 $end
   $var wire 1 ' dv_p2 $end
   $var wire 24 ( y_int [23:0] $end
   $scope module u_quadra $end
    $var wire 1 4 clk $end
    $var wire 1 5 rst_b $end
    $var wire 24 6 x [23:0] $end
    $var wire 24 ( y [23:0] $end
    $var wire 7 : x1_w [6:0] $end
    $var wire 17 ; x2_w [16:0] $end
    $var wire 24 < sq_w [23:0] $end
    $var wire 32 " a_w [31:0] $end
    $var wire 32 # b_w [31:0] $end
    $var wire 32 $ c_w [31:0] $end
    $var wire 17 ) x2_r1 [16:0] $end
    $var wire 24 * sq_r1 [23:0] $end
    $var wire 32 + a_r1 [31:0] $end
    $var wire 32 , b_r1 [31:0] $end
    $var wire 32 - c_r1 [31:0] $end
    $var wire 31 . t1_w [30:0] $end
    $var wire 31 / t2_w [30:0] $end
    $var wire 31 0 t0_r2 [30:0] $end
    $var wire 31 1 t1_r2 [30:0] $end
    $var wire 31 2 t2_r2 [30:0] $end
    $var wire 29 3 s_w [28:0] $end
    $var wire 24 ( y_r [23:0] $end
    $scope module u_lut $end
     $var wire 7 : x1 [6:0] $end
     $var wire 32 " a [31:0] $end
     $var wire 32 # b [31:0] $end
     $var wire 32 $ c [31:0] $end
    $upscope $end
    $scope module u_square $end
     $var wire 17 ; x2 [16:0] $end
     $var wire 24 < sq [23:0] $end
     $var wire 34 = sq_full [33:0] $end
     $var wire 34 ? sq_full_shifted [33:0] $end
    $upscope $end
   $upscope $end
  $upscope $end
 $upscope $end
$enddefinitions $end


#500
b11110100101011111011000011001101 "
b00010110101000001001111001100110 #
b00010110101000001001111001100110 $
1%
0&
0'
b100001101111101111001001 (
b00111101001010101 )
b010000000001000110011001 *
b10000011111011111001111001100011 +
b11011010110000111110111001100101 ,
b10000101010011111010110111010111 -
b0000000000000000000000010101010 .
b0000000000000000000000000110110 /
b0100001101011001110010000011101 0
b1011111010010100010011111001100 1
b1101000110111011010101010010111 2
b01001110101001011011010000000 3
04
15
b000000000000000000000000 6
07
b100001101111101111001001 8
09
b0000000 :
b00000000000000000 ;
b000000000000000000000000 <
b0000000000000000000000000000000000 =
b0000000000000000000000000000000000 ?
b00000000000000000000000000000001 A
b00000000000000000000000000010111 B
b00000000000000000000000000011000 C
b00000000000000000000000000000110 D
b00000000000000000000000000000111 E
b00000000000000000000000000000000 F
b11111111111111111111111111111010 G
b00000000000000000000000000010001 H
b00000000000000000000000000000100 I
b00000000000000000000000000011100 J
b00000000000000000000000000100000 K
b00000000000000000000000000000010 L
b00000000000000000000000000011011 M
b00000000000000000000000000011101 N
b00000000000000000000000000011111 O
#1000
0%
1&
b010011101010010110110100 (
b00000000000000000 )
b000000000000000000000000 *
b11110100101011111011000011001101 +
b00010110101000001001111001100110 ,
b00010110101000001001111001100110 -
b0000000000000000000000000000000 .
b0000000000000000000000000000000 /
b1000001111101111100111100110001 0
b0000000000000000000000010101010 1
b0000000000000000000000000110110 2
b00001111101111101000000010001 3
14
b010011101010010110110100 8
#1500
04
05
#2000
0&
b000000000000000000000000 (
b00000000000000000000000000000000 +
b00000000000000000000000000000000 ,
b00000000000000000000000000000000 -
b0000000000000000000000000000000 0
b0000000000000000000000000000000 1
b0000000000000000000000000000000 2
b00000000000000000000000000000 3
14
b000000000000000000000000 8
#2500
04
15
#3000
b11110100101011111011000011001101 +
b00010110101000001001111001100110 ,
b00010110101000001001111001100110 -
14
#3500
04
#4000
b1111010010101111101100001100110 0
b11010010101111101100001100110 3
14
#4500
04
#5000
b110100101011111011000011 (
14
b110100101011111011000011 8
#5500
04
#6000
14
#6500
04
#7000
14
#7500
04
#8000
14
#8500
04
#9000
14
#9500
04
#10000
14
#10500
04
#11000
14
#11500
04
#12000
14
#12500
04
#13000
14
#13500
04
#14000
14
#14500
04
#15000
14
#15500
b11111111010101010000000100001100 "
b11100000000001110010010001000110 #
b00000001010101011111110111100111 $
04
b111111111111111111110000 6
17
b1111111 :
b11111111111110000 ;
b111111111111000000000000 <
b1111111111110000000000000100000000 =
b0000000000111111111111000000000000 ?
#16000
1%
b11111111111110000 )
b111111111111000000000000 *
b11111111010101010000000100001100 +
b11100000000001110010010001000110 ,
b00000001010101011111110111100111 -
b0000000000000000001001000000110 .
b0000000000000000000000001000011 /
14
#16500
04
b111111111111111111110001 6
b11111111111110001 ;
b111111111111000100000000 <
b1111111111110001000000000011100001 =
b0000000000111111111111000100000000 ?
#17000
1&
b11111111111110001 )
b111111111111000100000000 *
b0000000000000000000101000001000 .
b0000000000000000000000001101110 /
b1111111101010101000000010000110 0
b0000000000000000001001000000110 1
b0000000000000000000000001000011 2
b11111101010101001001011001111 3
14
#17500
04
b111111111111111111110010 6
b11111111111110010 ;
b111111111111001000000000 <
b1111111111110010000000000011000100 =
b0000000000111111111111001000000000 ?
#18000
1'
b111111010101010010010110 (
b11111111111110010 )
b111111111111001000000000 *
b0000000000000000000001000001010 .
b0000000000000000000000000011001 /
b0000000000000000000101000001000 1
b0000000000000000000000001101110 2
b11111101010101000101011111100 3
14
b111111010101010010010110 8
19
#18500
04
b111111111111111111110011 6
b11111111111110011 ;
b111111111111001100000000 <
b1111111111110011000000000010101001 =
b0000000000111111111111001100000000 ?
#19000
b111111010101010001010111 (
b11111111111110011 )
b111111111111001100000000 *
b0000000000000000011101000001011 .
b0000000000000000000000001000100 /
b0000000000000000000001000001010 1
b0000000000000000000000000011001 2
b11111101010101000001010101001 3
14
b111111010101010001010111 8
#19500
04
b111111111111111111110100 6
b11111111111110100 ;
b111111111111010000000000 <
b1111111111110100000000000010010000 =
b0000000000111111111111010000000000 ?
#20000
b111111010101010000010101 (
b11111111111110100 )
b111111111111010000000000 *
b0000000000000000011001000001101 .
b0000000000000000000000001101111 /
b0000000000000000011101000001011 1
b0000000000000000000000001000100 2
b11111101010101011101011010101 3
14
b111111010101010000010101 8
#20500
04
b111111111111111111110101 6
b11111111111110101 ;
b111111111111010100000000 <
b1111111111110101000000000001111001 =
b0000000000111111111111010100000000 ?
#21000
b111111010101010111010110 (
b11111111111110101 )
b111111111111010100000000 *
b0000000000000000010101000001111 .
b0000000000000000000000000011010 /
b0000000000000000011001000001101 1
b0000000000000000000000001101111 2
b11111101010101011001100000010 3
14
b111111010101010111010110 8
#21500
04
b111111111111111111110110 6
b11111111111110110 ;
b111111111111011000000000 <
b1111111111110110000000000001100100 =
b0000000000111111111111011000000000 ?
#22000
b111111010101010110011000 (
b11111111111110110 )
b111111111111011000000000 *
b0000000000000000010001000010001 .
b0000000000000000000000001000101 /
b0000000000000000010101000001111 1
b0000000000000000000000000011010 2
b11111101010101010101010101111 3
14
b111111010101010110011000 8
#22500
04
b111111111111111111110111 6
b11111111111110111 ;
b111111111111011100000000 <
b1111111111110111000000000001010001 =
b0000000000111111111111011100000000 ?
#23000
b111111010101010101010101 (
b11111111111110111 )
b111111111111011100000000 *
b0000000000000000001101000010010 .
b0000000000000000000000001110000 /
b0000000000000000010001000010001 1
b0000000000000000000000001000101 2
b11111101010101010001011011100 3
14
b111111010101010101010101 8
#23500
04
b111111111111111111111000 6
b11111111111111000 ;
b111111111111100000000000 <
b1111111111111000000000000001000000 =
b0000000000111111111111100000000000 ?
#24000
b111111010101010100010110 (
b11111111111111000 )
b111111111111100000000000 *
b0000000000000000001001000010100 .
b0000000000000000000000000011011 /
b0000000000000000001101000010010 1
b0000000000000000000000001110000 2
b11111101010101001101100001000 3
14
b111111010101010100010110 8
#24500
04
b111111111111111111111001 6
b11111111111111001 ;
b111111111111100100000000 <
b1111111111111001000000000000110001 =
b0000000000111111111111100100000000 ?
#25000
b111111010101010011011000 (
b11111111111111001 )
b111111111111100100000000 *
b0000000000000000000101000010110 .
b0000000000000000000000001000110 /
b0000000000000000001001000010100 1
b0000000000000000000000000011011 2
b11111101010101001001010110101 3
14
b111111010101010011011000 8
#25500
04
b111111111111111111111010 6
b11111111111111010 ;
b111111111111101000000000 <
b1111111111111010000000000000100100 =
b0000000000111111111111101000000000 ?
#26000
b111111010101010010010101 (
b11111111111111010 )
b111111111111101000000000 *
b0000000000000000000001000011000 .
b0000000000000000000000001110001 /
b0000000000000000000101000010110 1
b0000000000000000000000001000110 2
b11111101010101000101011100010 3
14
b111111010101010010010101 8
#26500
04
b111111111111111111111011 6
b11111111111111011 ;
b111111111111101100000000 <
b1111111111111011000000000000011001 =
b0000000000111111111111101100000000 ?
#27000
b111111010101010001010111 (
b11111111111111011 )
b111111111111101100000000 *
b0000000000000000011101000011010 .
b0000000000000000000000000011100 /
b0000000000000000000001000011000 1
b0000000000000000000000001110001 2
b11111101010101000001100001111 3
14
b111111010101010001010111 8
#27500
04
b111111111111111111111100 6
b11111111111111100 ;
b111111111111110000000000 <
b1111111111111100000000000000010000 =
b0000000000111111111111110000000000 ?
#28000
b111111010101010000011000 (
b11111111111111100 )
b111111111111110000000000 *
b0000000000000000011001000011011 .
b0000000000000000000000001000111 /
b0000000000000000011101000011010 1
b0000000000000000000000000011100 2
b11111101010101011101010111100 3
14
b111111010101010000011000 8
#28500
04
b111111111111111111111101 6
b11111111111111101 ;
b111111111111110100000000 <
b1111111111111101000000000000001001 =
b0000000000111111111111110100000000 ?
#29000
b111111010101010111010101 (
b11111111111111101 )
b111111111111110100000000 *
b0000000000000000010101000011101 .
b0000000000000000000000001110010 /
b0000000000000000011001000011011 1
b0000000000000000000000001000111 2
b11111101010101011001011101000 3
14
b111111010101010111010101 8
#29500
04
b111111111111111111111110 6
b11111111111111110 ;
b111111111111111000000000 <
b1111111111111110000000000000000100 =
b0000000000111111111111111000000000 ?
#30000
b111111010101010110010111 (
b11111111111111110 )
b111111111111111000000000 *
b0000000000000000010001000011111 .
b0000000000000000000000000011101 /
b0000000000000000010101000011101 1
b0000000000000000000000001110010 2
b11111101010101010101100010101 3
14
b111111010101010110010111 8
#30500
04
b111111111111111111111111 6
b11111111111111111 ;
b111111111111111100000000 <
b1111111111111111000000000000000001 =
b0000000000111111111111111100000000 ?
#31000
b111111010101010101011000 (
b11111111111111111 )
b111111111111111100000000 *
b0000000000000000001101000100001 .
b0000000000000000000000001001000 /
b0000000000000000010001000011111 1
b0000000000000000000000000011101 2
b11111101010101010001011000010 3
14
b111111010101010101011000 8
#31500
b11110100101011111011000011001101 "
b00010110101000001001111001100110 #
b00010110101000001001111001100110 $
04
b000000000000000000000000 6
07
b0000000 :
b00000000000000000 ;
b000000000000000000000000 <
b0000000000000000000000000000000000 =
b0000000000000000000000000000000000 ?
#32000
0%
b111111010101010100010110 (
b00000000000000000 )
b000000000000000000000000 *
b11110100101011111011000011001101 +
b00010110101000001001111001100110 ,
b00010110101000001001111001100110 -
b0000000000000000000000000000000 .
b0000000000000000000000000000000 /
b0000000000000000001101000100001 1
b0000000000000000000000001001000 2
b11111101010101001101011101111 3
14
b111111010101010100010110 8
#32500
04
#33000
0&
b111111010101010011010111 (
b1111010010101111101100001100110 0
b0000000000000000000000000000000 1
b0000000000000000000000000000000 2
b11010010101111101100001100110 3
14
b111111010101010011010111 8
#33500
04
#34000
0'
b110100101011111011000011 (
14
b110100101011111011000011 8
09
