verilator/dump.vcd
$version Generated by VerilatedVcd $end
$timescale 1ps $end
 $scope module top $end
  $var wire 1 4 clk $end
  $var wire 1 5 rst_b $end
  $var wire 24 6 x [23:0] $end
  $var wire 1 7 x_dv $end
  $var wire 24 8 y [23:0] $end
  $var wire 1 9 y_dv $end
  $scope module $unit $end
   $var wire 32 A X_I [31:0] $end
   $var wire 32 B X_F [31:0] $end
   $var wire 32 C X_W [31:0] $end
   $var wire 32 A X1_I [31:0] $end
   $var wire 32 D X1_F [31:0] $end
   $var wire 32 E X1_W [31:0] $end
   $var wire 32 F X2_I [31:0] $end
   $var wire 32 G X2_J [31:0] $end
   $var wire 32 H X2_F [31:0] $end
   $var wire 32 H X2_W [31:0] $end
   $var wire 32 I A_I [31:0] $end
   $var wire 32 J A_F [31:0] $end
   $var wire 32 K A_W [31:0] $end
   $var wire 32 I B_I [31:0] $end
   $var wire 32 L B_F [31:0] $end
   $var wire 32 M B_W [31:0] $end
   $var wire 32 N C_I [31:0] $end
   $var wire 32 O C_F [31:0] $end
   $var wire 32 P C_W [31:0] $end
   $var wire 32 N Y_I [31:0] $end
   $var wire 32 B Y_F [31:0] $end
   $var wire 32 C Y_W [31:0] $end
   $var wire 32 Q R_F [31:0] $end
   $var wire 32 N S_I [31:0] $end
   $var wire 32 R S_F [31:0] $end
   $var wire 32 S S_W [31:0] $end
   $var wire 32 F SQ_I [31:0] $end
   $var wire 32 C SQ_F [31:0] $end
   $var wire 32 C SQ_W [31:0] $end
   $var wire 32 I T0_I [31:0] $end
   $var wire 32 R T0_F [31:0] $end
   $var wire 32 T T0_W [31:0] $end
   $var wire 32 I T1_I [31:0] $end
   $var wire 32 R T1_F [31:0] $end
   $var wire 32 T T1_W [31:0] $end
   $var wire 32 N T2_I [31:0] $end
   $var wire 32 R T2_F [31:0] $end
   $var wire 32 S T2_W [31:0] $end
  $upscope $end
  $scope module quadra_top $end
   $var wire 1 4 clk $end
   $var wire 1 5 rst_b $end
   $var wire 24 6 x [23:0] $end
   $var wire 1 7 x_dv $end
   $var wire 24 8 y [23:0] $end
   $var wire 1 9 y_dv $end
   $var wire 1 % dv_p0 $end
   $var wire 1 & dv_p1 $end
   $var wire 1 ' dv_p2 $end
   $var wire 24 ( y_int [23:0] $end
   $scope module u_quadra $end
    $var wire 1 4 clk $end
    $var wire 1 5 rst_b $end
    $var wire 24 6 x [23:0] $end
    $var wire 24 ( y [23:0] $end
    $var wire 7 : x1_w [6:0] $end
    $var wire 17 ; x2_w [16:0] $end
    $var wire 24 < sq_w [23:0] $end
    $var wire 25 " a_w [24:0] $end
    $var wire 19 # b_w [18:0] $end
    $var wire 13 $ c_w [12:0] $end
    $var wire 17 ) x2_r1 [16:0] $end
    $var wire 24 * sq_r1 [23:0] $end
    $var wire 25 + a_r1 [24:0] $end
    $var wire 19 , b_r1 [18:0] $end
    $var wire 13 - c_r1 [12:0] $end
    $var wire 30 . t1_w [29:0] $end
    $var wire 29 / t2_w [28:0] $end
    $var wire 30 0 t0_r2 [29:0] $end
    $var wire 30 1 t1_r2 [29:0] $end
    $var wire 29 2 t2_r2 [28:0] $end
    $var wire 29 3 s_w [28:0] $end
    $var wire 24 ( y_r [23:0] $end
    $scope module u_lut $end
     $var wire 7 : x1 [6:0] $end
     $var wire 25 " a [24:0] $end
     $var wire 19 # b [18:0] $end
     $var wire 13 $ c [12:0] $end
    $upscope $end
    $scope module u_square $end
     $var wire 17 ; x2 [16:0] $end
     $var wire 24 < sq [23:0] $end
     $var wire 34 = sq_full [33:0] $end
     $var wire 34 ? sq_full_shifted [33:0] $end
    $upscope $end
   $upscope $end
  $upscope $end
 $upscope $end
$enddefinitions $end


#500
b1110100101011111011000011 "
b0010110101000001010 #
b0101101010000 $
1%
0&
0'
b100001101111101111001001 (
b00111101001010101 )
b010000000001000110011001 *
b1111011111001111001100011 +
b0111110111001100101 ,
b0110111010111 -
b111111100000111010100100100110 .
b11111111101101011001110001100 /
b100001101011001110010000011101 0
b011111010010100010011111001100 1
b01000110111011010101010010111 2
b01001110101001011011010000000 3
04
15
b000000000000000000000000 6
07
b100001101111101111001001 8
09
b0000000 :
b00000000000000000 ;
b000000000000000000000000 <
b0000000000000000000000000000000000 =
b0000000000000000000000000000000000 ?
b00000000000000000000000000000001 A
b00000000000000000000000000010111 B
b00000000000000000000000000011000 C
b00000000000000000000000000000110 D
b00000000000000000000000000000111 E
b00000000000000000000000000000000 F
b11111111111111111111111111111010 G
b00000000000000000000000000010001 H
b00000000000000000000000000000011 I
b00000000000000000000000000010110 J
b00000000000000000000000000011001 K
b00000000000000000000000000010000 L
b00000000000000000000000000010011 M
b00000000000000000000000000000010 N
b00000000000000000000000000001011 O
b00000000000000000000000000001101 P
b00000000000000000000000000000100 Q
b00000000000000000000000000011011 R
b00000000000000000000000000011101 S
b00000000000000000000000000011110 T
#1000
0%
1&
b010011101010010110110100 (
b00000000000000000 )
b000000000000000000000000 *
b1110100101011111011000011 +
b0010110101000001010 ,
b0101101010000 -
b000000000000000000000000000000 .
b00000000000000000000000000000 /
b000000000000000000000000000000 0
b111111100000111010100100100110 1
b11111111101101011001110001100 2
b11111011110100101110010110010 3
14
b010011101010010110110100 8
#1500
04
05
#2000
0&
b000000000000000000000000 (
b0000000000000000000000000 +
b0000000000000000000 ,
b0000000000000 -
b000000000000000000000000000000 1
b00000000000000000000000000000 2
b00000000000000000000000000000 3
14
b000000000000000000000000 8
#2500
04
15
#3000
b1110100101011111011000011 +
b0010110101000001010 ,
b0101101010000 -
14
#3500
04
#4000
14
#4500
04
#5000
14
#5500
04
#6000
14
#6500
04
#7000
14
#7500
04
#8000
14
#8500
04
#9000
14
#9500
04
#10000
14
#10500
04
#11000
14
#11500
04
#12000
14
#12500
04
#13000
14
#13500
04
#14000
14
#14500
04
#15000
14
#15500
b1111111010101010000000100 "
b1100000000001110010 #
b0000010101011 $
04
b111111111111111111110000 6
17
b1111111 :
b11111111111110000 ;
b111111111111000000000000 <
b1111111111110000000000000100000000 =
b0000000000111111111111000000000000 ?
#16000
1%
b11111111111110000 )
b111111111111000000000000 *
b1111111010101010000000100 +
b1100000000001110010 ,
b0000010101011 -
b000000000001000000111111100011 .
b00000000010101111010101010000 /
14
#16500
04
b111111111111111111110001 6
b11111111111110001 ;
b111111111111000100000000 <
b1111111111110001000000000011100001 =
b0000000000111111111111000100000000 ?
#17000
1&
b11111111111110001 )
b111111111111000100000000 *
b000000000001000000011111100101 .
b00000000010101111010111111011 /
b000000000001000000111111100011 1
b00000000010101111010101010000 2
b00000000011110000010100110011 3
14
#17500
04
b111111111111111111110010 6
b11111111111110010 ;
b111111111111001000000000 <
b1111111111110010000000000011000100 =
b0000000000111111111111001000000000 ?
#18000
1'
b000000000111100000101001 (
b11111111111110010 )
b111111111111001000000000 *
b000000000000111111111111100111 .
b00000000010101111011010100110 /
b000000000001000000011111100101 1
b00000000010101111010111111011 2
b00000000011101111110111100000 3
14
b000000000111100000101001 8
19
#18500
04
b111111111111111111110011 6
b11111111111110011 ;
b111111111111001100000000 <
b1111111111110011000000000010101001 =
b0000000000111111111111001100000000 ?
#19000
b000000000111011111101111 (
b11111111111110011 )
b111111111111001100000000 *
b000000000000111111011111101000 .
b00000000010101111011101010001 /
b000000000000111111111111100111 1
b00000000010101111011010100110 2
b00000000011101111011010001101 3
14
b000000000111011111101111 8
#19500
04
b111111111111111111110100 6
b11111111111110100 ;
b111111111111010000000000 <
b1111111111110100000000000010010000 =
b0000000000111111111111010000000000 ?
#20000
b000000000111011110110100 (
b11111111111110100 )
b111111111111010000000000 *
b000000000000111110111111101010 .
b00000000010101111011111111100 /
b000000000000111111011111101000 1
b00000000010101111011101010001 2
b00000000011101110111100111001 3
14
b000000000111011110110100 8
#20500
04
b111111111111111111110101 6
b11111111111110101 ;
b111111111111010100000000 <
b1111111111110101000000000001111001 =
b0000000000111111111111010100000000 ?
#21000
b000000000111011101111001 (
b11111111111110101 )
b111111111111010100000000 *
b000000000000111110011111101100 .
b00000000010101111100010100111 /
b000000000000111110111111101010 1
b00000000010101111011111111100 2
b00000000011101110011111100110 3
14
b000000000111011101111001 8
#21500
04
b111111111111111111110110 6
b11111111111110110 ;
b111111111111011000000000 <
b1111111111110110000000000001100100 =
b0000000000111111111111011000000000 ?
#22000
b000000000111011100111111 (
b11111111111110110 )
b111111111111011000000000 *
b000000000000111101111111101110 .
b00000000010101111100101010010 /
b000000000000111110011111101100 1
b00000000010101111100010100111 2
b00000000011101110000010010011 3
14
b000000000111011100111111 8
#22500
04
b111111111111111111110111 6
b11111111111110111 ;
b111111111111011100000000 <
b1111111111110111000000000001010001 =
b0000000000111111111111011100000000 ?
#23000
b000000000111011100000100 (
b11111111111110111 )
b111111111111011100000000 *
b000000000000111101011111101111 .
b00000000010101111100111111101 /
b000000000000111101111111101110 1
b00000000010101111100101010010 2
b00000000011101101100101000000 3
14
b000000000111011100000100 8
#23500
04
b111111111111111111111000 6
b11111111111111000 ;
b111111111111100000000000 <
b1111111111111000000000000001000000 =
b0000000000111111111111100000000000 ?
#24000
b000000000111011011001010 (
b11111111111111000 )
b111111111111100000000000 *
b000000000000111100111111110001 .
b00000000010101111101010101000 /
b000000000000111101011111101111 1
b00000000010101111100111111101 2
b00000000011101101000111101100 3
14
b000000000111011011001010 8
#24500
04
b111111111111111111111001 6
b11111111111111001 ;
b111111111111100100000000 <
b1111111111111001000000000000110001 =
b0000000000111111111111100100000000 ?
#25000
b000000000111011010001111 (
b11111111111111001 )
b111111111111100100000000 *
b000000000000111100011111110011 .
b00000000010101111101101010011 /
b000000000000111100111111110001 1
b00000000010101111101010101000 2
b00000000011101100101010011001 3
14
b000000000111011010001111 8
#25500
04
b111111111111111111111010 6
b11111111111111010 ;
b111111111111101000000000 <
b1111111111111010000000000000100100 =
b0000000000111111111111101000000000 ?
#26000
b000000000111011001010100 (
b11111111111111010 )
b111111111111101000000000 *
b000000000000111011111111110101 .
b00000000010101111101111111110 /
b000000000000111100011111110011 1
b00000000010101111101101010011 2
b00000000011101100001101000110 3
14
b000000000111011001010100 8
#26500
04
b111111111111111111111011 6
b11111111111111011 ;
b111111111111101100000000 <
b1111111111111011000000000000011001 =
b0000000000111111111111101100000000 ?
#27000
b000000000111011000011010 (
b11111111111111011 )
b111111111111101100000000 *
b000000000000111011011111110111 .
b00000000010101111110010101001 /
b000000000000111011111111110101 1
b00000000010101111101111111110 2
b00000000011101011101111110011 3
14
b000000000111011000011010 8
#27500
04
b111111111111111111111100 6
b11111111111111100 ;
b111111111111110000000000 <
b1111111111111100000000000000010000 =
b0000000000111111111111110000000000 ?
#28000
b000000000111010111011111 (
b11111111111111100 )
b111111111111110000000000 *
b000000000000111010111111111000 .
b00000000010101111110101010100 /
b000000000000111011011111110111 1
b00000000010101111110010101001 2
b00000000011101011010010100000 3
14
b000000000111010111011111 8
#28500
04
b111111111111111111111101 6
b11111111111111101 ;
b111111111111110100000000 <
b1111111111111101000000000000001001 =
b0000000000111111111111110100000000 ?
#29000
b000000000111010110100101 (
b11111111111111101 )
b111111111111110100000000 *
b000000000000111010011111111010 .
b00000000010101111110111111111 /
b000000000000111010111111111000 1
b00000000010101111110101010100 2
b00000000011101010110101001100 3
14
b000000000111010110100101 8
#29500
04
b111111111111111111111110 6
b11111111111111110 ;
b111111111111111000000000 <
b1111111111111110000000000000000100 =
b0000000000111111111111111000000000 ?
#30000
b000000000111010101101010 (
b11111111111111110 )
b111111111111111000000000 *
b000000000000111001111111111100 .
b00000000010101111111010101010 /
b000000000000111010011111111010 1
b00000000010101111110111111111 2
b00000000011101010010111111001 3
14
b000000000111010101101010 8
#30500
04
b111111111111111111111111 6
b11111111111111111 ;
b111111111111111100000000 <
b1111111111111111000000000000000001 =
b0000000000111111111111111100000000 ?
#31000
b000000000111010100101111 (
b11111111111111111 )
b111111111111111100000000 *
b000000000000111001011111111110 .
b00000000010101111111101010101 /
b000000000000111001111111111100 1
b00000000010101111111010101010 2
b00000000011101001111010100110 3
14
b000000000111010100101111 8
#31500
b1110100101011111011000011 "
b0010110101000001010 #
b0101101010000 $
04
b000000000000000000000000 6
07
b0000000 :
b00000000000000000 ;
b000000000000000000000000 <
b0000000000000000000000000000000000 =
b0000000000000000000000000000000000 ?
#32000
0%
b000000000111010011110101 (
b00000000000000000 )
b000000000000000000000000 *
b1110100101011111011000011 +
b0010110101000001010 ,
b0101101010000 -
b000000000000000000000000000000 .
b00000000000000000000000000000 /
b000000000000111001011111111110 1
b00000000010101111111101010101 2
b00000000011101001011101010011 3
14
b000000000111010011110101 8
#32500
04
#33000
0&
b000000000111010010111010 (
b000000000000000000000000000000 1
b00000000000000000000000000000 2
b00000000000000000000000000000 3
14
b000000000111010010111010 8
#33500
04
#34000
0'
b000000000000000000000000 (
14
b000000000000000000000000 8
09
