verilator/dump.vcd
$version Generated by VerilatedVcd $end
$timescale 1ps $end
 $scope module top $end
  $var wire 1 > clk $end
  $var wire 1 ? rst_b $end
  $var wire 24 @ x [23:0] $end
  $var wire 1 A x_dv $end
  $var wire 24 B y [23:0] $end
  $var wire 1 C y_dv $end
  $scope module $unit $end
   $var wire 32 K X_I [31:0] $end
   $var wire 32 L X_F [31:0] $end
   $var wire 32 M X_W [31:0] $end
   $var wire 32 K X1_I [31:0] $end
   $var wire 32 N X1_F [31:0] $end
   $var wire 32 O X1_W [31:0] $end
   $var wire 32 P X2_I [31:0] $end
   $var wire 32 Q X2_F [31:0] $end
   $var wire 32 Q X2_W [31:0] $end
   $var wire 32 R A_I [31:0] $end
   $var wire 32 S A_F [31:0] $end
   $var wire 32 T A_W [31:0] $end
   $var wire 32 R B_I [31:0] $end
   $var wire 32 U B_F [31:0] $end
   $var wire 32 V B_W [31:0] $end
   $var wire 32 W C_I [31:0] $end
   $var wire 32 X C_F [31:0] $end
   $var wire 32 Y C_W [31:0] $end
   $var wire 32 W Y_I [31:0] $end
   $var wire 32 L Y_F [31:0] $end
   $var wire 32 M Y_W [31:0] $end
   $var wire 32 Z R_F [31:0] $end
   $var wire 32 W S_I [31:0] $end
   $var wire 32 [ S_F [31:0] $end
   $var wire 32 \ S_W [31:0] $end
   $var wire 32 P SQ_I [31:0] $end
   $var wire 32 M SQ_F [31:0] $end
   $var wire 32 M SQ_W [31:0] $end
   $var wire 32 R T0_I [31:0] $end
   $var wire 32 [ T0_F [31:0] $end
   $var wire 32 ] T0_W [31:0] $end
   $var wire 32 R T1_I [31:0] $end
   $var wire 32 [ T1_F [31:0] $end
   $var wire 32 ] T1_W [31:0] $end
   $var wire 32 W T2_I [31:0] $end
   $var wire 32 [ T2_F [31:0] $end
   $var wire 32 \ T2_W [31:0] $end
  $upscope $end
  $scope module quadra_top $end
   $var wire 1 > clk $end
   $var wire 1 ? rst_b $end
   $var wire 24 @ x [23:0] $end
   $var wire 1 A x_dv $end
   $var wire 24 B y [23:0] $end
   $var wire 1 C y_dv $end
   $var wire 1 % dv_p0 $end
   $var wire 1 & dv_p1 $end
   $var wire 1 ' dv_p2 $end
   $var wire 24 ( y_int [23:0] $end
   $scope module u_quadra $end
    $var wire 1 > clk $end
    $var wire 1 ? rst_b $end
    $var wire 24 @ x [23:0] $end
    $var wire 24 ( y [23:0] $end
    $var wire 7 D x1_w [6:0] $end
    $var wire 17 E x2_w [16:0] $end
    $var wire 24 F sq_w [23:0] $end
    $var wire 25 " a_w [24:0] $end
    $var wire 19 # b_w [18:0] $end
    $var wire 13 $ c_w [12:0] $end
    $var wire 17 ) x2_r1 [16:0] $end
    $var wire 24 * sq_r1 [23:0] $end
    $var wire 25 + a_r1 [24:0] $end
    $var wire 19 , b_r1 [18:0] $end
    $var wire 13 - c_r1 [12:0] $end
    $var wire 30 . t1_w [29:0] $end
    $var wire 29 / t2_w [28:0] $end
    $var wire 36 0 t1_w_full [35:0] $end
    $var wire 36 2 t1_w_shifted [35:0] $end
    $var wire 37 4 t2_w_full [36:0] $end
    $var wire 37 6 t2_w_shifted [36:0] $end
    $var wire 30 8 t0_r2 [29:0] $end
    $var wire 30 9 t1_r2 [29:0] $end
    $var wire 29 : t2_r2 [28:0] $end
    $var wire 29 ; s_w [28:0] $end
    $var wire 29 < t0_ext [28:0] $end
    $var wire 29 = t1_ext [28:0] $end
    $var wire 29 : t2_ext [28:0] $end
    $var wire 24 ( y_r [23:0] $end
    $scope module u_lut $end
     $var wire 7 D x1 [6:0] $end
     $var wire 25 " a [24:0] $end
     $var wire 19 # b [18:0] $end
     $var wire 13 $ c [12:0] $end
    $upscope $end
    $scope module u_square $end
     $var wire 17 E x2 [16:0] $end
     $var wire 24 F sq [23:0] $end
     $var wire 34 G sq_full [33:0] $end
     $var wire 34 I sq_full_shifted [33:0] $end
    $upscope $end
   $upscope $end
  $upscope $end
 $upscope $end
$enddefinitions $end


#500
b1110100101011111011000011 "
b0010110101000001010 #
b0101101010000 $
1%
0&
0'
b100001101111101111001001 (
b00111101001010101 )
b010000000001000110011001 *
b1111011111001111001100011 +
b0111110111001100101 ,
b0110111010111 -
b000111100000111010100100100110 .
b00011011101101011001110001100 /
b000111100000111010100100100110001001 0
b000000000111100000111010100100100110 2
b0001101110110101100111000110001111111 4
b0000000000011011101101011001110001100 6
b100001101011001110010000011101 8
b011111010010100010011111001100 9
b01000110111011010101010010111 :
b01001110101001011011010000000 ;
b00001101011001110010000011101 <
b11111010010100010011111001100 =
0>
1?
b000000000000000000000000 @
0A
b100001101111101111001001 B
0C
b0000000 D
b00000000000000000 E
b000000000000000000000000 F
b0000000000000000000000000000000000 G
b0000000000000000000000000000000000 I
b00000000000000000000000000000001 K
b00000000000000000000000000010111 L
b00000000000000000000000000011000 M
b00000000000000000000000000000110 N
b00000000000000000000000000000111 O
b00000000000000000000000000000000 P
b00000000000000000000000000010001 Q
b00000000000000000000000000000011 R
b00000000000000000000000000010110 S
b00000000000000000000000000011001 T
b00000000000000000000000000010000 U
b00000000000000000000000000010011 V
b00000000000000000000000000000010 W
b00000000000000000000000000001011 X
b00000000000000000000000000001101 Y
b00000000000000000000000000000100 Z
b00000000000000000000000000011011 [
b00000000000000000000000000011101 \
b00000000000000000000000000011110 ]
#1000
0%
1&
b100111010100101101101000 (
b00000000000000000 )
b000000000000000000000000 *
b1110100101011111011000011 +
b0010110101000001010 ,
b0101101010000 -
b000000000000000000000000000000 .
b00000000000000000000000000000 /
b000000000000000000000000000000000000 0
b000000000000000000000000000000000000 2
b0000000000000000000000000000000000000 4
b0000000000000000000000000000000000000 6
b111101111100111100110001100000 8
b000111100000111010100100100110 9
b00011011101101011001110001100 :
b01000111011100010100100010010 ;
b11101111100111100110001100000 <
b00111100000111010100100100110 =
1>
b100111010100101101101000 B
#1500
0>
0?
#2000
0&
b000000000000000000000000 (
b0000000000000000000000000 +
b0000000000000000000 ,
b0000000000000 -
b000000000000000000000000000000 8
b000000000000000000000000000000 9
b00000000000000000000000000000 :
b00000000000000000000000000000 ;
b00000000000000000000000000000 <
b00000000000000000000000000000 =
1>
b000000000000000000000000 B
#2500
0>
1?
#3000
b1110100101011111011000011 +
b0010110101000001010 ,
b0101101010000 -
1>
#3500
0>
#4000
b111010010101111101100001100000 8
b11010010101111101100001100000 ;
b11010010101111101100001100000 <
1>
#4500
0>
#5000
b101001010111110110000110 (
1>
b101001010111110110000110 B
#5500
0>
#6000
1>
#6500
0>
#7000
1>
#7500
0>
#8000
1>
#8500
0>
#9000
1>
#9500
0>
#10000
1>
#10500
0>
#11000
1>
#11500
0>
#12000
1>
#12500
0>
#13000
1>
#13500
0>
#14000
1>
#14500
0>
#15000
1>
#15500
0>
b000000000000111111111111 @
1A
b00000111111111111 E
b000000000011111111111000 F
b0000000000111111111110000000000001 G
b0000000000000000000011111111111000 I
#16000
1%
b00000111111111111 )
b000000000011111111111000 *
b000000010110100111110011010111 .
b00000000000101101001110100101 /
b000000010110100111110011010111110110 0
b000000000000010110100111110011010111 2
b0000000000010110100111010010110000000 4
b0000000000000000000101101001110100101 6
1>
#16500
0>
b000000000001000100000000 @
b00001000100000000 E
b000000000100100001000000 F
b0000000001001000010000000000000000 G
b0000000000000000000100100001000000 I
#17000
1&
b00001000100000000 )
b000000000100100001000000 *
b000000011000000010101010101000 .
b00000000000110011000101010100 /
b000000011000000010101010101000000000 0
b000000000000011000000010101010101000 2
b0000000000011001100010101010000000000 4
b0000000000000000000110011000101010100 6
b000000010110100111110011010111 9
b00000000000101101001110100101 :
b11010101101010010100011011100 ;
b00000010110100111110011010111 =
1>
#17500
0>
b000000000001001000000001 @
b00001001000000001 E
b000000000101000100001001 F
b0000000001010001000010010000000001 G
b0000000000000000000101000100001001 I
#18000
1'
b101010110101001010001101 (
b00001001000000001 )
b000000000101000100001001 *
b000000011001011101100001111000 .
b00000000000111001010010110101 /
b000000011001011101100001111000001010 0
b000000000000011001011101100001111000 2
b0000000000011100101001011010111010000 4
b0000000000000000000111001010010110101 6
b000000011000000010101010101000 9
b00000000000110011000101010100 :
b11010101110110011010001011100 ;
b00000011000000010101010101000 =
1>
b101010110101001010001101 B
1C
#18500
0>
b000000000001001100000010 @
b00001001100000010 E
b000000000101101001010011 F
b0000000001011010010100110000000100 G
b0000000000000000000101101001010011 I
#19000
b101010111011001101000101 (
b00001001100000010 )
b000000000101101001010011 *
b000000011010111000011001001000 .
b00000000000111111110111001010 /
b000000011010111000011001001000010100 0
b000000000000011010111000011001001000 2
b0000000000011111111011100101011110000 4
b0000000000000000000111111110111001010 6
b000000011001011101100001111000 9
b00000000000111001010010110101 :
b11010110000010100010110001101 ;
b00000011001011101100001111000 =
1>
b101010111011001101000101 B
#19500
0>
b000000000001010000000011 @
b00001010000000011 E
b000000000110010000011110 F
b0000000001100100000111100000001001 G
b0000000000000000000110010000011110 I
#20000
b101011000001010001011000 (
b00001010000000011 )
b000000000110010000011110 *
b000000011100010011010000011000 .
b00000000001000110110010010011 /
b000000011100010011010000011000011110 0
b000000000000011100010011010000011000 2
b0000000000100011011001001001101100000 4
b0000000000000000001000110110010010011 6
b000000011010111000011001001000 9
b00000000000111111110111001010 :
b11010110001110101110001110010 ;
b00000011010111000011001001000 =
1>
b101011000001010001011000 B
#20500
0>
b000000000001010100000100 @
b00001010100000100 E
b000000000110111001101010 F
b0000000001101110011010100000010000 G
b0000000000000000000110111001101010 I
#21000
b101011000111010111000111 (
b00001010100000100 )
b000000000110111001101010 *
b000000011101101110000111101000 .
b00000000001001110000100001111 /
b000000011101101110000111101000101000 0
b000000000000011101101110000111101000 2
b0000000000100111000010000111100100000 4
b0000000000000000001001110000100001111 6
b000000011100010011010000011000 9
b00000000001000110110010010011 :
b11010110011010111100100001011 ;
b00000011100010011010000011000 =
1>
b101011000111010111000111 B
#21500
0>
b000000000001011000000101 @
b00001011000000101 E
b000000000111100100110111 F
b0000000001111001001101110000011001 G
b0000000000000000000111100100110111 I
#22000
b101011001101011110010000 (
b00001011000000101 )
b000000000111100100110111 *
b000000011111001000111110111000 .
b00000000001010101101100111110 /
b000000011111001000111110111000110010 0
b000000000000011111001000111110111000 2
b0000000000101010110110011111000110000 4
b0000000000000000001010101101100111110 6
b000000011101101110000111101000 9
b00000000001001110000100001111 :
b11010110100111001101101010111 ;
b00000011101101110000111101000 =
1>
b101011001101011110010000 B
#22500
0>
b000000000001011100000110 @
b00001011100000110 E
b000000001000010010000101 F
b0000000010000100100001010000100100 G
b0000000000000000001000010010000101 I
#23000
b101011010011100110110101 (
b00001011100000110 )
b000000001000010010000101 *
b000000100000100011110110001000 .
b00000000001011101101100100000 /
b000000100000100011110110001000111100 0
b000000000000100000100011110110001000 2
b0000000000101110110110010000010010000 4
b0000000000000000001011101101100100000 6
b000000011111001000111110111000 9
b00000000001010101101100111110 :
b11010110110011100001101010110 ;
b00000011111001000111110111000 =
1>
b101011010011100110110101 B
#23500
0>
b000000000001100000000111 @
b00001100000000111 E
b000000001001000001010100 F
b0000000010010000010101000000110001 G
b0000000000000000001001000001010100 I
#24000
b101011011001110000110101 (
b00001100000000111 )
b000000001001000001010100 *
b000000100001111110101101011001 .
b00000000001100110000010110110 /
b000000100001111110101101011001000110 0
b000000000000100001111110101101011001 2
b0000000000110011000001011011001000000 4
b0000000000000000001100110000010110110 6
b000000100000100011110110001000 9
b00000000001011101101100100000 :
b11010110111111111000100001000 ;
b00000100000100011110110001000 =
1>
b101011011001110000110101 B
#24500
0>
b000000000001100100001000 @
b00001100100001000 E
b000000001001110010100100 F
b0000000010011100101001000001000000 G
b0000000000000000001001110010100100 I
#25000
b101011011111111100010000 (
b00001100100001000 )
b000000001001110010100100 *
b000000100011011001100100101001 .
b00000000001101110101111111111 /
b000000100011011001100100101001010000 0
b000000000000100011011001100100101001 2
b0000000000110111010111111111101000000 4
b0000000000000000001101110101111111111 6
b000000100001111110101101011001 9
b00000000001100110000010110110 :
b11010111001100010010001101111 ;
b00000100001111110101101011001 =
1>
b101011011111111100010000 B
#25500
0>
b000000000001101000001001 @
b00001101000001001 E
b000000001010100101110101 F
b0000000010101001011101010001010001 G
b0000000000000000001010100101110101 I
#26000
b101011100110001001000110 (
b00001101000001001 )
b000000001010100101110101 *
b000000100100110100011011111001 .
b00000000001110111110011111011 /
b000000100100110100011011111001011010 0
b000000000000100100110100011011111001 2
b0000000000111011111001111101110010000 4
b0000000000000000001110111110011111011 6
b000000100011011001100100101001 9
b00000000001101110101111111111 :
b11010111011000101110110001000 ;
b00000100011011001100100101001 =
1>
b101011100110001001000110 B
#26500
0>
b000000000001101100001010 @
b00001101100001010 E
b000000001011011011000111 F
b0000000010110110110001110001100100 G
b0000000000000000001011011011000111 I
#27000
b101011101100010111011000 (
b00001101100001010 )
b000000001011011011000111 *
b000000100110001111010011001001 .
b00000000010000001001110101011 /
b000000100110001111010011001001100100 0
b000000000000100110001111010011001001 2
b0000000001000000100111010101100110000 4
b0000000000000000010000001001110101011 6
b000000100100110100011011111001 9
b00000000001110111110011111011 :
b11010111100101001110001010100 ;
b00000100100110100011011111001 =
1>
b101011101100010111011000 B
#27500
0>
b000000000001110000001011 @
b00001110000001011 E
b000000001100010010011010 F
b0000000011000100100110100001111001 G
b0000000000000000001100010010011010 I
#28000
b101011110010100111000101 (
b00001110000001011 )
b000000001100010010011010 *
b000000100111101010001010011001 .
b00000000010001011000000001110 /
b000000100111101010001010011001101110 0
b000000000000100111101010001010011001 2
b0000000001000101100000000111000100000 4
b0000000000000000010001011000000001110 6
b000000100110001111010011001001 9
b00000000010000001001110101011 :
b11010111110001110000011010100 ;
b00000100110001111010011001001 =
1>
b101011110010100111000101 B
#28500
0>
b000000000001110100001100 @
b00001110100001100 E
b000000001101001011101110 F
b0000000011010010111011100010010000 G
b0000000000000000001101001011101110 I
#29000
b101011111000111000001101 (
b00001110100001100 )
b000000001101001011101110 *
b000000101001000101000001101001 .
b00000000010010101001000100100 /
b000000101001000101000001101001111000 0
b000000000000101001000101000001101001 2
b0000000001001010100100010010001100000 4
b0000000000000000010010101001000100100 6
b000000100111101010001010011001 9
b00000000010001011000000001110 :
b11010111111110010101100000111 ;
b00000100111101010001010011001 =
1>
b101011111000111000001101 B
#29500
0>
b000000000001111000001101 @
b00001111000001101 E
b000000001110000111000011 F
b0000000011100001110000110010101001 G
b0000000000000000001110000111000011 I
#30000
b101011111111001010110000 (
b00001111000001101 )
b000000001110000111000011 *
b000000101010011111111000111010 .
b00000000010011111100111101101 /
b000000101010011111111000111010000010 0
b000000000000101010011111111000111010 2
b0000000001001111110011110110111110000 4
b0000000000000000010011111100111101101 6
b000000101001000101000001101001 9
b00000000010010101001000100100 :
b11011000001010111101011101101 ;
b00000101001000101000001101001 =
1>
b101011111111001010110000 B
#30500
0>
b000000000001111100001110 @
b00001111100001110 E
b000000001111000100011001 F
b0000000011110001000110010011000100 G
b0000000000000000001111000100011001 I
#31000
b101100000101011110101110 (
b00001111100001110 )
b000000001111000100011001 *
b000000101011111010110000001010 .
b00000000010101010011101101010 /
b000000101011111010110000001010001100 0
b000000000000101011111010110000001010 2
b0000000001010101001110110101011010000 4
b0000000000000000010101010011101101010 6
b000000101010011111111000111010 9
b00000000010011111100111101101 :
b11011000010111101000010000111 ;
b00000101010011111111000111010 =
1>
b101100000101011110101110 B
#31500
0>
b000000000010000000001111 @
b00010000000001111 E
b000000010000000011110000 F
b0000000100000000111100000011100001 G
b0000000000000000010000000011110000 I
#32000
b101100001011110100001000 (
b00010000000001111 )
b000000010000000011110000 *
b000000101101010101100111011010 .
b00000000010110101101010011011 /
b000000101101010101100111011010010110 0
b000000000000101101010101100111011010 2
b0000000001011010110101001101100000000 4
b0000000000000000010110101101010011011 6
b000000101011111010110000001010 9
b00000000010101010011101101010 :
b11011000100100010101111010100 ;
b00000101011111010110000001010 =
1>
b101100001011110100001000 B
#32500
0>
b000000000010000100010000 @
b00010000100010000 E
b000000010001000101001000 F
b0000000100010001010010000100000000 G
b0000000000000000010001000101001000 I
#33000
b101100010010001010111101 (
b00010000100010000 )
b000000010001000101001000 *
b000000101110110000011110101010 .
b00000000011000001001101111110 /
b000000101110110000011110101010100000 0
b000000000000101110110000011110101010 2
b0000000001100000100110111111010000000 4
b0000000000000000011000001001101111110 6
b000000101101010101100111011010 9
b00000000010110101101010011011 :
b11011000110001000110011010101 ;
b00000101101010101100111011010 =
1>
b101100010010001010111101 B
#33500
0>
b000000000010001000010001 @
b00010001000010001 E
b000000010010001000100001 F
b0000000100100010001000010100100001 G
b0000000000000000010010001000100001 I
#34000
b101100011000100011001101 (
b00010001000010001 )
b000000010010001000100001 *
b000000110000001011010101111010 .
b00000000011001101001000010101 /
b000000110000001011010101111010101010 0
b000000000000110000001011010101111010 2
b0000000001100110100100001010101010000 4
b0000000000000000011001101001000010101 6
b000000101110110000011110101010 9
b00000000011000001001101111110 :
b11011000111101111001110001000 ;
b00000101110110000011110101010 =
1>
b101100011000100011001101 B
#34500
0>
b000000000010001100010010 @
b00010001100010010 E
b000000010011001101111011 F
b0000000100110011011110110101000100 G
b0000000000000000010011001101111011 I
#35000
b101100011110111100111000 (
b00010001100010010 )
b000000010011001101111011 *
b000000110001100110001101001010 .
b00000000011011001011001011111 /
b000000110001100110001101001010110100 0
b000000000000110001100110001101001010 2
b0000000001101100101100101111101110000 4
b0000000000000000011011001011001011111 6
b000000110000001011010101111010 9
b00000000011001101001000010101 :
b11011001001010101111111101111 ;
b00000110000001011010101111010 =
1>
b101100011110111100111000 B
#35500
0>
b000000000010010000010011 @
b00010010000010011 E
b000000010100010101010110 F
b0000000101000101010101100101101001 G
b0000000000000000010100010101010110 I
#36000
b101100100101010111111110 (
b00010010000010011 )
b000000010100010101010110 *
b000000110011000001000100011010 .
b00000000011100110000001011100 /
b000000110011000001000100011010111110 0
b000000000000110011000001000100011010 2
b0000000001110011000000101110011100000 4
b0000000000000000011100110000001011100 6
b000000110001100110001101001010 9
b00000000011011001011001011111 :
b11011001010111101001000001001 ;
b00000110001100110001101001010 =
1>
b101100100101010111111110 B
#36500
0>
b000000000010010100010100 @
b00010010100010100 E
b000000010101011110110010 F
b0000000101010111101100100110010000 G
b0000000000000000010101011110110010 I
#37000
b101100101011110100100000 (
b00010010100010100 )
b000000010101011110110010 *
b000000110100011011111011101011 .
b00000000011110011000000001101 /
b000000110100011011111011101011001000 0
b000000000000110100011011111011101011 2
b0000000001111001100000000110110100000 4
b0000000000000000011110011000000001101 6
b000000110011000001000100011010 9
b00000000011100110000001011100 :
b11011001100100100100111010110 ;
b00000110011000001000100011010 =
1>
b101100101011110100100000 B
#37500
0>
b000000000010011000010101 @
b00010011000010101 E
b000000010110101010001111 F
b0000000101101010100011110110111001 G
b0000000000000000010110101010001111 I
#38000
b101100110010010010011101 (
b00010011000010101 )
b000000010110101010001111 *
b000000110101110110110010111011 .
b00000000100000000010101110001 /
b000000110101110110110010111011010010 0
b000000000000110101110110110010111011 2
b0000000010000000001010111000110110000 4
b0000000000000000100000000010101110001 6
b000000110100011011111011101011 9
b00000000011110011000000001101 :
b11011001110001100011101011000 ;
b00000110100011011111011101011 =
1>
b101100110010010010011101 B
#38500
0>
b000000000010011100010110 @
b00010011100010110 E
b000000010111110111101101 F
b0000000101111101111011010111100100 G
b0000000000000000010111110111101101 I
#39000
b101100111000110001110101 (
b00010011100010110 )
b000000010111110111101101 *
b000000110111010001101010001011 .
b00000000100001110000010001001 /
b000000110111010001101010001011011100 0
b000000000000110111010001101010001011 2
b0000000010000111000001000100100010000 4
b0000000000000000100001110000010001001 6
b000000110101110110110010111011 9
b00000000100000000010101110001 :
b11011001111110100101010001100 ;
b00000110101110110110010111011 =
1>
b101100111000110001110101 B
#39500
0>
b000000000010100000010111 @
b00010100000010111 E
b000000011001000111001100 F
b0000000110010001110011001000010001 G
b0000000000000000011001000111001100 I
#40000
b101100111111010010101000 (
b00010100000010111 )
b000000011001000111001100 *
b000000111000101100100001011011 .
b00000000100011100000101010011 /
b000000111000101100100001011011100110 0
b000000000000111000101100100001011011 2
b0000000010001110000010101001111000000 4
b0000000000000000100011100000101010011 6
b000000110111010001101010001011 9
b00000000100001110000010001001 :
b11011010001011101001101110100 ;
b00000110111010001101010001011 =
1>
b101100111111010010101000 B
#40500
0>
b000000000010100100011000 @
b00010100100011000 E
b000000011010011000101100 F
b0000000110100110001011001001000000 G
b0000000000000000011010011000101100 I
#41000
b101101000101110100110111 (
b00010100100011000 )
b000000011010011000101100 *
b000000111010000111011000101011 .
b00000000100101010011111010001 /
b000000111010000111011000101011110000 0
b000000000000111010000111011000101011 2
b0000000010010101001111101000111000000 4
b0000000000000000100101010011111010001 6
b000000111000101100100001011011 9
b00000000100011100000101010011 :
b11011010011000110001000001110 ;
b00000111000101100100001011011 =
1>
b101101000101110100110111 B
#41500
0>
b000000000010101000011001 @
b00010101000011001 E
b000000011011101100001101 F
b0000000110111011000011011001110001 G
b0000000000000000011011101100001101 I
#42000
b101101001100011000100000 (
b00010101000011001 )
b000000011011101100001101 *
b000000111011100010001111111011 .
b00000000100111001010000000011 /
b000000111011100010001111111011111010 0
b000000000000111011100010001111111011 2
b0000000010011100101000000001100010000 4
b0000000000000000100111001010000000011 6
b000000111010000111011000101011 9
b00000000100101010011111010001 :
b11011010100101111011001011100 ;
b00000111010000111011000101011 =
1>
b101101001100011000100000 B
#42500
0>
b000000000010101100011010 @
b00010101100011010 E
b000000011101000001101111 F
b0000000111010000011011111010100100 G
b0000000000000000011101000001101111 I
#43000
b101101010010111101100101 (
b00010101100011010 )
b000000011101000001101111 *
b000000111100111101000111001100 .
b00000000101001000010111100111 /
b000000111100111101000111001100000100 0
b000000000000111100111101000111001100 2
b0000000010100100001011110011110110000 4
b0000000000000000101001000010111100111 6
b000000111011100010001111111011 9
b00000000100111001010000000011 :
b11011010110011001000001011110 ;
b00000111011100010001111111011 =
1>
b101101010010111101100101 B
#43500
0>
b000000000010110000011011 @
b00010110000011011 E
b000000011110011001010010 F
b0000000111100110010100101011011001 G
b0000000000000000011110011001010010 I
#44000
b101101011001100100000101 (
b00010110000011011 )
b000000011110011001010010 *
b000000111110010111111110011100 .
b00000000101010111110101111111 /
b000000111110010111111110011100001110 0
b000000000000111110010111111110011100 2
b0000000010101011111010111111110100000 4
b0000000000000000101010111110101111111 6
b000000111100111101000111001100 9
b00000000101001000010111100111 :
b11011011000000011000000010011 ;
b00000111100111101000111001100 =
1>
b101101011001100100000101 B
#44500
0>
b000000000010110100011100 @
b00010110100011100 E
b000000011111110010110110 F
b0000000111111100101101101100010000 G
b0000000000000000011111110010110110 I
#45000
b101101100000001100000001 (
b00010110100011100 )
b000000011111110010110110 *
b000000111111110010110101101100 .
b00000000101100111101011001010 /
b000000111111110010110101101100011000 0
b000000000000111111110010110101101100 2
b0000000010110011110101100101011100000 4
b0000000000000000101100111101011001010 6
b000000111110010111111110011100 9
b00000000101010111110101111111 :
b11011011001101101010101111011 ;
b00000111110010111111110011100 =
1>
b101101100000001100000001 B
#45500
0>
b000000000010111000011101 @
b00010111000011101 E
b000000100001001110011011 F
b0000001000010011100110111101001001 G
b0000000000000000100001001110011011 I
#46000
b101101100110110101010111 (
b00010111000011101 )
b000000100001001110011011 *
b000001000001001101101100111100 .
b00000000101110111110111001001 /
b000001000001001101101100111100100010 0
b000000000001000001001101101100111100 2
b0000000010111011111011100100101110000 4
b0000000000000000101110111110111001001 6
b000000111111110010110101101100 9
b00000000101100111101011001010 :
b11011011011011000000010010110 ;
b00000111111110010110101101100 =
1>
b101101100110110101010111 B
#46500
0>
b000000000010111100011110 @
b00010111100011110 E
b000000100010101100000001 F
b0000001000101011000000011110000100 G
b0000000000000000100010101100000001 I
#47000
b101101101101100000001001 (
b00010111100011110 )
b000000100010101100000001 *
b000001000010101000100100001100 .
b00000000110001000011001111011 /
b000001000010101000100100001100101100 0
b000000000001000010101000100100001100 2
b0000000011000100001100111101101010000 4
b0000000000000000110001000011001111011 6
b000001000001001101101100111100 9
b00000000101110111110111001001 :
b11011011101000011000101100101 ;
b00001000001001101101100111100 =
1>
b101101101101100000001001 B
#47500
0>
b000000000011000000011111 @
b00011000000011111 E
b000000100100001011101000 F
b0000001001000010111010001111000001 G
b0000000000000000100100001011101000 I
#48000
b101101110100001100010110 (
b00011000000011111 )
b000000100100001011101000 *
b000001000100000011011011011100 .
b00000000110011001010011100000 /
b000001000100000011011011011100110110 0
b000000000001000100000011011011011100 2
b0000000011001100101001110000010000000 4
b0000000000000000110011001010011100000 6
b000001000010101000100100001100 9
b00000000110001000011001111011 :
b11011011110101110011111100111 ;
b00001000010101000100100001100 =
1>
b101101110100001100010110 B
#48500
0>
b000000000011000100100000 @
b00011000100100000 E
b000000100101101101010001 F
b0000001001011011010100010000000000 G
b0000000000000000100101101101010001 I
#49000
b101101111010111001111110 (
b00011000100100000 )
b000000100101101101010001 *
b000001000101011110010010101101 .
b00000000110101010100100000100 /
b000001000101011110010010101101000000 0
b000000000001000101011110010010101101 2
b0000000011010101010010000010001010000 4
b0000000000000000110101010100100000100 6
b000001000100000011011011011100 9
b00000000110011001010011100000 :
b11011100000011010010000011100 ;
b00001000100000011011011011100 =
1>
b101101111010111001111110 B
#49500
0>
b000000000011001000100001 @
b00011001000100001 E
b000000100111010000111010 F
b0000001001110100001110100001000001 G
b0000000000000000100111010000111010 I
#50000
b101110000001101001000001 (
b00011001000100001 )
b000000100111010000111010 *
b000001000110111001001001111101 .
b00000000110111100001011010000 /
b000001000110111001001001111101001010 0
b000000000001000110111001001001111101 2
b0000000011011110000101101000000100000 4
b0000000000000000110111100001011010000 6
b000001000101011110010010101101 9
b00000000110101010100100000100 :
b11011100010000110011000010001 ;
b00001000101011110010010101101 =
1>
b101110000001101001000001 B
#50500
0>
b000000000011001100100010 @
b00011001100100010 E
b000000101000110110100100 F
b0000001010001101101001000010000100 G
b0000000000000000101000110110100100 I
#51000
b101110001000011001100001 (
b00011001100100010 )
b000000101000110110100100 *
b000001001000010100000001001101 .
b00000000111001110001001001111 /
b000001001000010100000001001101010100 0
b000000000001001000010100000001001101 2
b0000000011100111000100100111101000000 4
b0000000000000000111001110001001001111 6
b000001000110111001001001111101 9
b00000000110111100001011010000 :
b11011100011110010110110101101 ;
b00001000110111001001001111101 =
1>
b101110001000011001100001 B
#51500
0>
b000000000011010000100011 @
b00011010000100011 E
b000000101010011110001111 F
b0000001010100111100011110011001001 G
b0000000000000000101010011110001111 I
#52000
b101110001111001011011010 (
b00011010000100011 )
b000000101010011110001111 *
b000001001001101110111000011101 .
b00000000111100000011110000001 /
b000001001001101110111000011101011110 0
b000000000001001001101110111000011101 2
b0000000011110000001111000000110110000 4
b0000000000000000111100000011110000001 6
b000001001000010100000001001101 9
b00000000111001110001001001111 :
b11011100101011111101011111100 ;
b00001001000010100000001001101 =
1>
b101110001111001011011010 B
#52500
0>
b000000000011010100100100 @
b00011010100100100 E
b000000101100000111111011 F
b0000001011000001111110110100010000 G
b0000000000000000101100000111111011 I
#53000
b101110010101111110101111 (
b00011010100100100 )
b000000101100000111111011 *
b000001001011001001101111101101 .
b00000000111110011001001100111 /
b000001001011001001101111101101101000 0
b000000000001001011001001101111101101 2
b0000000011111001100100110011101110000 4
b0000000000000000111110011001001100111 6
b000001001001101110111000011101 9
b00000000111100000011110000001 :
b11011100111001100110111111110 ;
b00001001001101110111000011101 =
1>
b101110010101111110101111 B
#53500
0>
b000000000011011000100101 @
b00011011000100101 E
b000000101101110011101000 F
b0000001011011100111010000101011001 G
b0000000000000000101101110011101000 I
#54000
b101110011100110011011111 (
b00011011000100101 )
b000000101101110011101000 *
b000001001100100100100110111101 .
b00000001000000110001100000000 /
b000001001100100100100110111101110010 0
b000000000001001100100100100110111101 2
b0000000100000011000110000000010000000 4
b0000000000000001000000110001100000000 6
b000001001011001001101111101101 9
b00000000111110011001001100111 :
b11011101000111010011010110100 ;
b00001001011001001101111101101 =
1>
b101110011100110011011111 B
#54500
0>
b000000000011011100100110 @
b00011011100100110 E
b000000101111100001010110 F
b0000001011111000010101100110100100 G
b0000000000000000101111100001010110 I
#55000
b101110100011101001101011 (
b00011011100100110 )
b000000101111100001010110 *
b000001001101111111011110001101 .
b00000001000011001100101001100 /
b000001001101111111011110001101111100 0
b000000000001001101111111011110001101 2
b0000000100001100110010100110011100000 4
b0000000000000001000011001100101001100 6
b000001001100100100100110111101 9
b00000001000000110001100000000 :
b11011101010101000010100011101 ;
b00001001100100100100110111101 =
1>
b101110100011101001101011 B
#55500
0>
b000000000011100000100111 @
b00011100000100111 E
b000000110001010001000101 F
b0000001100010100010001010111110001 G
b0000000000000000110001010001000101 I
#56000
b101110101010100001010001 (
b00011100000100111 )
b000000110001010001000101 *
b000001001111011010010101011110 .
b00000001000101101010101001100 /
b000001001111011010010101011110000110 0
b000000000001001111011010010101011110 2
b0000000100010110101010100110010010000 4
b0000000000000001000101101010101001100 6
b000001001101111111011110001101 9
b00000001000011001100101001100 :
b11011101100010110100100111001 ;
b00001001101111111011110001101 =
1>
b101110101010100001010001 B
#56500
0>
b000000000011100100101000 @
b00011100100101000 E
b000000110011000010110101 F
b0000001100110000101101011001000000 G
b0000000000000000110011000010110101 I
#57000
b101110110001011010010011 (
b00011100100101000 )
b000000110011000010110101 *
b000001010000110101001100101110 .
b00000001001000001011011111111 /
b000001010000110101001100101110010000 0
b000000000001010000110101001100101110 2
b0000000100100000101101111111110010000 4
b0000000000000001001000001011011111111 6
b000001001111011010010101011110 9
b00000001000101101010101001100 :
b11011101110000101001100001010 ;
b00001001111011010010101011110 =
1>
b101110110001011010010011 B
