verilator/dump.vcd
$version Generated by VerilatedVcd $end
$timescale 1ps $end
 $scope module top $end
  $var wire 1 8 clk $end
  $var wire 1 9 rst_b $end
  $var wire 24 : x [23:0] $end
  $var wire 1 ; x_dv $end
  $var wire 24 < y [23:0] $end
  $var wire 1 = y_dv $end
  $scope module $unit $end
   $var wire 32 F X_I [31:0] $end
   $var wire 32 G X_F [31:0] $end
   $var wire 32 H X_W [31:0] $end
   $var wire 32 F X1_I [31:0] $end
   $var wire 32 I X1_F [31:0] $end
   $var wire 32 J X1_W [31:0] $end
   $var wire 32 K X2_I [31:0] $end
   $var wire 32 L X2_J [31:0] $end
   $var wire 32 M X2_F [31:0] $end
   $var wire 32 M X2_W [31:0] $end
   $var wire 32 N A_I [31:0] $end
   $var wire 32 O A_F [31:0] $end
   $var wire 32 P A_W [31:0] $end
   $var wire 32 N B_I [31:0] $end
   $var wire 32 O B_F [31:0] $end
   $var wire 32 P B_W [31:0] $end
   $var wire 32 N C_I [31:0] $end
   $var wire 32 O C_F [31:0] $end
   $var wire 32 P C_W [31:0] $end
   $var wire 32 Q Y_I [31:0] $end
   $var wire 32 G Y_F [31:0] $end
   $var wire 32 H Y_W [31:0] $end
   $var wire 32 N R_F [31:0] $end
   $var wire 32 Q S_I [31:0] $end
   $var wire 32 R S_F [31:0] $end
   $var wire 32 S S_W [31:0] $end
   $var wire 32 K SQ_I [31:0] $end
   $var wire 32 H SQ_F [31:0] $end
   $var wire 32 H SQ_W [31:0] $end
   $var wire 32 N T0_I [31:0] $end
   $var wire 32 R T0_F [31:0] $end
   $var wire 32 T T0_W [31:0] $end
   $var wire 32 N T1_I [31:0] $end
   $var wire 32 R T1_F [31:0] $end
   $var wire 32 T T1_W [31:0] $end
   $var wire 32 N T2_I [31:0] $end
   $var wire 32 R T2_F [31:0] $end
   $var wire 32 T T2_W [31:0] $end
  $upscope $end
  $scope module quadra_top $end
   $var wire 1 8 clk $end
   $var wire 1 9 rst_b $end
   $var wire 24 : x [23:0] $end
   $var wire 1 ; x_dv $end
   $var wire 24 < y [23:0] $end
   $var wire 1 = y_dv $end
   $var wire 1 % dv_p0 $end
   $var wire 1 & dv_p1 $end
   $var wire 1 ' dv_p2 $end
   $var wire 24 ( y_int [23:0] $end
   $scope module u_quadra $end
    $var wire 1 8 clk $end
    $var wire 1 9 rst_b $end
    $var wire 24 : x [23:0] $end
    $var wire 24 ( y [23:0] $end
    $var wire 7 > x1_w [6:0] $end
    $var wire 17 ? x2_w [16:0] $end
    $var wire 24 @ sq_w [23:0] $end
    $var wire 32 " a_w [31:0] $end
    $var wire 32 # b_w [31:0] $end
    $var wire 32 $ c_w [31:0] $end
    $var wire 17 ) x2_r1 [16:0] $end
    $var wire 24 * sq_r1 [23:0] $end
    $var wire 32 + a_r1 [31:0] $end
    $var wire 32 , b_r1 [31:0] $end
    $var wire 32 - c_r1 [31:0] $end
    $var wire 31 . t1_w [30:0] $end
    $var wire 31 E t2_w [30:0] $end
    $var wire 48 / t1_temp_full [47:0] $end
    $var wire 31 1 t0_r2 [30:0] $end
    $var wire 31 2 t1_r2 [30:0] $end
    $var wire 31 3 t2_r2 [30:0] $end
    $var wire 29 4 s_w [28:0] $end
    $var wire 93 5 s_full [92:0] $end
    $var wire 24 ( y_r [23:0] $end
    $scope module u_lut $end
     $var wire 7 > x1 [6:0] $end
     $var wire 32 " a [31:0] $end
     $var wire 32 # b [31:0] $end
     $var wire 32 $ c [31:0] $end
    $upscope $end
    $scope module u_square $end
     $var wire 17 ? x2 [16:0] $end
     $var wire 24 @ sq [23:0] $end
     $var wire 34 A sq_full [33:0] $end
     $var wire 34 C sq_full_shifted [33:0] $end
    $upscope $end
   $upscope $end
  $upscope $end
 $upscope $end
$enddefinitions $end


#500
b11110100101011111011000011001101 "
b00010110101000001001111001100110 #
b00010110101000001001111001100110 $
1%
0&
0'
b100001101111101111001001 (
b00111101001010101 )
b010000000001000110011001 *
b10000011111011111001111001100011 +
b11011010110000111110111001100101 ,
b10000101010011111010110111010111 -
b0000111011100011010100000010101 .
b111011100011010100000010101010100100100110001001 /
b0100001101011001110010000011101 1
b1011111010010100010011111001100 2
b1101000110111011010101010010111 3
b10100111010100101101101000000 4
b111111111111111111111111111111111111111111111111111111111111111101001110101001011011010000000 5
08
19
b000000000000000000000000 :
0;
b100001101111101111001001 <
0=
b0000000 >
b00000000000000000 ?
b000000000000000000000000 @
b0000000000000000000000000000000000 A
b0000000000000000000000000000000000 C
b0000000000000000000000000000001 E
b00000000000000000000000000000001 F
b00000000000000000000000000010111 G
b00000000000000000000000000011000 H
b00000000000000000000000000000110 I
b00000000000000000000000000000111 J
b00000000000000000000000000000000 K
b11111111111111111111111111111010 L
b00000000000000000000000000010001 M
b00000000000000000000000000000100 N
b00000000000000000000000000011100 O
b00000000000000000000000000100000 P
b00000000000000000000000000000010 Q
b00000000000000000000000000011011 R
b00000000000000000000000000011101 S
b00000000000000000000000000011111 T
#1000
0%
1&
b111010100101101101000000 (
b00000000000000000 )
b000000000000000000000000 *
b11110100101011111011000011001101 +
b00010110101000001001111001100110 ,
b00010110101000001001111001100110 -
b0000000000000000000000000000000 .
b000000000000000000000000000000000000000000000000 /
b0000000000000000000000000000001 1
b0000111011100011010100000010101 2
b0000000000000000000000000000001 3
b00011101110001101010000001011 4
b000000000000000000000000000000000000000000000000000000000000000000111011100011010100000010111 5
18
b111010100101101101000000 <
#1500
08
09
#2000
0&
b000000000000000000000000 (
b00000000000000000000000000000000 +
b00000000000000000000000000000000 ,
b00000000000000000000000000000000 -
b0000000000000000000000000000000 1
b0000000000000000000000000000000 2
b0000000000000000000000000000000 3
b00000000000000000000000000000 4
b000000000000000000000000000000000000000000000000000000000000000000000000000000000000000000000 5
18
b000000000000000000000000 <
#2500
08
19
#3000
b11110100101011111011000011001101 +
b00010110101000001001111001100110 ,
b00010110101000001001111001100110 -
b0000000000000000000000000000001 1
b0000000000000000000000000000001 3
b00000000000000000000000000001 4
b000000000000000000000000000000000000000000000000000000000000000000000000000000000000000000010 5
18
#3500
08
#4000
b000000000000000000000001 (
18
b000000000000000000000001 <
#4500
08
#5000
18
#5500
08
#6000
18
#6500
08
#7000
18
#7500
08
#8000
18
#8500
08
#9000
18
#9500
08
#10000
18
#10500
08
#11000
18
#11500
08
#12000
18
#12500
08
#13000
18
#13500
08
#14000
18
#14500
08
#15000
18
#15500
b11111111010101010000000100001100 "
b11100000000001110010010001000110 #
b00000001010101011111110111100111 $
08
b111111111111111111110000 :
1;
b1111111 >
b11111111111110000 ?
b111111111111000000000000 @
b1111111111110000000000000100000000 A
b0000000000111111111111000000000000 C
#16000
1%
b11111111111110000 )
b111111111111000000000000 *
b11111111010101010000000100001100 +
b11100000000001110010010001000110 ,
b00000001010101011111110111100111 -
b0000000000000000000111111111100 .
b000000000000000111111111100011011011101110100000 /
18
#16500
08
b111111111111111111110001 :
b11111111111110001 ?
b111111111111000100000000 @
b1111111111110001000000000011100001 A
b0000000000111111111111000100000000 C
#17000
1&
b11111111111110001 )
b111111111111000100000000 *
b0000000000000000000111011111100 .
b000000000000000111011111100101001101111111100110 /
b0000000000000000000111111111100 2
b00000000000000000011111111111 4
b000000000000000000000000000000000000000000000000000000000000000000000000000000000111111111110 5
18
#17500
08
b111111111111111111110010 :
b11111111111110010 ?
b111111111111001000000000 @
b1111111111110010000000000011000100 A
b0000000000111111111111001000000000 C
#18000
1'
b000000000000011111111111 (
b11111111111110010 )
b111111111111001000000000 *
b0000000000000000000110111111100 .
b000000000000000110111111100111000000010000101100 /
b0000000000000000000111011111100 2
b00000000000000000011101111111 4
b000000000000000000000000000000000000000000000000000000000000000000000000000000000111011111110 5
18
b000000000000011111111111 <
1=
#18500
08
b111111111111111111110011 :
b11111111111110011 ?
b111111111111001100000000 @
b1111111111110011000000000010101001 A
b0000000000111111111111001100000000 C
#19000
b000000000000011101111111 (
b11111111111110011 )
b111111111111001100000000 *
b0000000000000000000110011111101 .
b000000000000000110011111101000110010100001110010 /
b0000000000000000000110111111100 2
b00000000000000000011011111111 4
b000000000000000000000000000000000000000000000000000000000000000000000000000000000110111111110 5
18
b000000000000011101111111 <
#19500
08
b111111111111111111110100 :
b11111111111110100 ?
b111111111111010000000000 @
b1111111111110100000000000010010000 A
b0000000000111111111111010000000000 C
#20000
b000000000000011011111111 (
b11111111111110100 )
b111111111111010000000000 *
b0000000000000000000101111111101 .
b000000000000000101111111101010100100110010111000 /
b0000000000000000000110011111101 2
b00000000000000000011001111111 4
b000000000000000000000000000000000000000000000000000000000000000000000000000000000110011111111 5
18
b000000000000011011111111 <
#20500
08
b111111111111111111110101 :
b11111111111110101 ?
b111111111111010100000000 @
b1111111111110101000000000001111001 A
b0000000000111111111111010100000000 C
#21000
b000000000000011001111111 (
b11111111111110101 )
b111111111111010100000000 *
b0000000000000000000101011111101 .
b000000000000000101011111101100010111000011111110 /
b0000000000000000000101111111101 2
b00000000000000000010111111111 4
b000000000000000000000000000000000000000000000000000000000000000000000000000000000101111111111 5
18
b000000000000011001111111 <
#21500
08
b111111111111111111110110 :
b11111111111110110 ?
b111111111111011000000000 @
b1111111111110110000000000001100100 A
b0000000000111111111111011000000000 C
#22000
b000000000000010111111111 (
b11111111111110110 )
b111111111111011000000000 *
b0000000000000000000100111111101 .
b000000000000000100111111101110001001010101000100 /
b0000000000000000000101011111101 2
b00000000000000000010101111111 4
b000000000000000000000000000000000000000000000000000000000000000000000000000000000101011111111 5
18
b000000000000010111111111 <
#22500
08
b111111111111111111110111 :
b11111111111110111 ?
b111111111111011100000000 @
b1111111111110111000000000001010001 A
b0000000000111111111111011100000000 C
#23000
b000000000000010101111111 (
b11111111111110111 )
b111111111111011100000000 *
b0000000000000000000100011111101 .
b000000000000000100011111101111111011100110001010 /
b0000000000000000000100111111101 2
b00000000000000000010011111111 4
b000000000000000000000000000000000000000000000000000000000000000000000000000000000100111111111 5
18
b000000000000010101111111 <
#23500
08
b111111111111111111111000 :
b11111111111111000 ?
b111111111111100000000000 @
b1111111111111000000000000001000000 A
b0000000000111111111111100000000000 C
#24000
b000000000000010011111111 (
b11111111111111000 )
b111111111111100000000000 *
b0000000000000000000011111111110 .
b000000000000000011111111110001101101110111010000 /
b0000000000000000000100011111101 2
b00000000000000000010001111111 4
b000000000000000000000000000000000000000000000000000000000000000000000000000000000100011111111 5
18
b000000000000010011111111 <
#24500
08
b111111111111111111111001 :
b11111111111111001 ?
b111111111111100100000000 @
b1111111111111001000000000000110001 A
b0000000000111111111111100100000000 C
#25000
b000000000000010001111111 (
b11111111111111001 )
b111111111111100100000000 *
b0000000000000000000011011111110 .
b000000000000000011011111110011100000001000010110 /
b0000000000000000000011111111110 2
b00000000000000000010000000000 4
b000000000000000000000000000000000000000000000000000000000000000000000000000000000100000000000 5
18
b000000000000010001111111 <
#25500
08
b111111111111111111111010 :
b11111111111111010 ?
b111111111111101000000000 @
b1111111111111010000000000000100100 A
b0000000000111111111111101000000000 C
#26000
b000000000000010000000000 (
b11111111111111010 )
b111111111111101000000000 *
b0000000000000000000010111111110 .
b000000000000000010111111110101010010011001011100 /
b0000000000000000000011011111110 2
b00000000000000000001110000000 4
b000000000000000000000000000000000000000000000000000000000000000000000000000000000011100000000 5
18
b000000000000010000000000 <
#26500
08
b111111111111111111111011 :
b11111111111111011 ?
b111111111111101100000000 @
b1111111111111011000000000000011001 A
b0000000000111111111111101100000000 C
#27000
b000000000000001110000000 (
b11111111111111011 )
b111111111111101100000000 *
b0000000000000000000010011111110 .
b000000000000000010011111110111000100101010100010 /
b0000000000000000000010111111110 2
b00000000000000000001100000000 4
b000000000000000000000000000000000000000000000000000000000000000000000000000000000011000000000 5
18
b000000000000001110000000 <
#27500
08
b111111111111111111111100 :
b11111111111111100 ?
b111111111111110000000000 @
b1111111111111100000000000000010000 A
b0000000000111111111111110000000000 C
#28000
b000000000000001100000000 (
b11111111111111100 )
b111111111111110000000000 *
b0000000000000000000001111111111 .
b000000000000000001111111111000110110111011101000 /
b0000000000000000000010011111110 2
b00000000000000000001010000000 4
b000000000000000000000000000000000000000000000000000000000000000000000000000000000010100000000 5
18
b000000000000001100000000 <
#28500
08
b111111111111111111111101 :
b11111111111111101 ?
b111111111111110100000000 @
b1111111111111101000000000000001001 A
b0000000000111111111111110100000000 C
#29000
b000000000000001010000000 (
b11111111111111101 )
b111111111111110100000000 *
b0000000000000000000001011111111 .
b000000000000000001011111111010101001001100101110 /
b0000000000000000000001111111111 2
b00000000000000000001000000000 4
b000000000000000000000000000000000000000000000000000000000000000000000000000000000010000000001 5
18
b000000000000001010000000 <
#29500
08
b111111111111111111111110 :
b11111111111111110 ?
b111111111111111000000000 @
b1111111111111110000000000000000100 A
b0000000000111111111111111000000000 C
#30000
b000000000000001000000000 (
b11111111111111110 )
b111111111111111000000000 *
b0000000000000000000000111111111 .
b000000000000000000111111111100011011011101110100 /
b0000000000000000000001011111111 2
b00000000000000000000110000000 4
b000000000000000000000000000000000000000000000000000000000000000000000000000000000001100000001 5
18
b000000000000001000000000 <
#30500
08
b111111111111111111111111 :
b11111111111111111 ?
b111111111111111100000000 @
b1111111111111111000000000000000001 A
b0000000000111111111111111100000000 C
#31000
b000000000000000110000000 (
b11111111111111111 )
b111111111111111100000000 *
b0000000000000000000000011111111 .
b000000000000000000011111111110001101101110111010 /
b0000000000000000000000111111111 2
b00000000000000000000100000000 4
b000000000000000000000000000000000000000000000000000000000000000000000000000000000001000000001 5
18
b000000000000000110000000 <
#31500
b11110100101011111011000011001101 "
b00010110101000001001111001100110 #
b00010110101000001001111001100110 $
08
b000000000000000000000000 :
0;
b0000000 >
b00000000000000000 ?
b000000000000000000000000 @
b0000000000000000000000000000000000 A
b0000000000000000000000000000000000 C
#32000
0%
b000000000000000100000000 (
b00000000000000000 )
b000000000000000000000000 *
b11110100101011111011000011001101 +
b00010110101000001001111001100110 ,
b00010110101000001001111001100110 -
b0000000000000000000000000000000 .
b000000000000000000000000000000000000000000000000 /
b0000000000000000000000011111111 2
b00000000000000000000010000000 4
b000000000000000000000000000000000000000000000000000000000000000000000000000000000000100000001 5
18
b000000000000000100000000 <
#32500
08
#33000
0&
b000000000000000010000000 (
b0000000000000000000000000000000 2
b00000000000000000000000000001 4
b000000000000000000000000000000000000000000000000000000000000000000000000000000000000000000010 5
18
b000000000000000010000000 <
#33500
08
#34000
0'
b000000000000000000000001 (
18
b000000000000000000000001 <
0=
